<?xml version="1.0" standalone="no"?>
<!DOCTYPE svg PUBLIC "-//W3C//DTD SVG 1.1//EN" "http://www.w3.org/Graphics/SVG/1.1/DTD/svg11.dtd">
<svg xmlns="http://www.w3.org/2000/svg"><defs><font id="flaticon" horiz-adv-x="512"><font-face units-per-em="512" ascent="448" descent="-64" x-height="240" cap-height="480"/><missing-glyph horiz-adv-x="512"/><glyph unicode="&#xE000;" glyph-name="atom6" horiz-adv-x="512" d="M331.34592 193.44384c0 -41.61536 -33.73568 -75.34592 -75.34592 -75.34592s-75.34592 33.73056 -75.34592 75.34592S214.38976 268.78976 256 268.78976 S331.34592 235.0592 331.34592 193.44384zM398.47424 212.8384c-5.39648 -11.41248 -11.34592 -22.60992 -17.75616 -33.57184c1.85856 -3.3024 3.72224 -6.61504 5.61152 -10.13248 c9.56928 -18.18624 19.59936 -39.23456 27.3152 -63.6416c3.75296 -12.22144 6.91712 -25.29792 8.24832 -39.33696c1.18272 -13.93664 1.12128 -29.29152 -5.53472 -44.39552 c-3.34336 -7.4496 -8.71424 -14.592 -15.85664 -19.8144c-0.78848 -0.5632 -1.3824 -1.09568 -2.33472 -1.69472l-3.10784 -1.80224c-2.14016 -1.31072 -4.1216 -2.00192 -6.19008 -2.89792 c-4.13696 -1.6384 -8.43264 -2.6624 -12.75904 -3.3792c-17.42848 -2.48832 -34.4064 1.17248 -50.24256 6.58944c-25.09824 8.94976 -48.25088 22.63552 -69.86752 38.72768 c-21.61664 -16.09728 -44.76416 -29.77792 -69.86752 -38.72768c-15.84128 -5.42208 -32.81408 -9.07776 -50.24256 -6.58944c-4.3264 0.72192 -8.6272 1.7408 -12.75904 3.3792 c-2.06848 0.90112 -4.04992 1.59232 -6.19008 2.89792l-3.10784 1.80224c-0.95744 0.59904 -1.54624 1.13152 -2.33472 1.69472c-7.1424 5.22752 -12.50816 12.3648 -15.85664 19.8144 c-6.656 15.104 -6.72256 30.45888 -5.53472 44.39552c1.33632 14.03392 4.49536 27.11552 8.24832 39.33696c7.71584 24.40704 17.74592 45.45536 27.3152 63.6416 c1.88928 3.51744 3.74784 6.83008 5.61152 10.13248c-6.41024 10.96192 -12.35968 22.15936 -17.75616 33.57184c-14.5408 30.91968 -25.60512 63.38048 -28.60544 96.95232 c-1.31584 16.70144 -0.5888 34.05824 6.19008 50.33472c3.40992 8.04352 8.68352 15.63136 15.60064 21.1968l1.29024 1.03936l0.64512 0.52224l0.32256 0.256 c0.03072 0.03584 0.9216 0.65536 0.68608 0.47616l2.36032 1.45408c1.34656 0.92672 3.67104 2.02752 5.7344 3.00032c4.15744 1.86368 8.07936 2.88256 12.16 3.66592 c16.31232 2.65728 31.20128 -1.12128 44.40064 -5.77536c13.25568 -4.80768 25.12896 -11.14624 36.0192 -17.8432c17.536 -10.97216 32.52736 -22.8608 45.67552 -34.31424 c13.14816 11.45344 28.13952 23.3472 45.67552 34.31424c10.89024 6.70208 22.76352 13.03552 36.0192 17.8432c13.19936 4.65408 28.08832 8.42752 44.40064 5.77536 c4.08064 -0.78336 8.00256 -1.80224 12.16 -3.66592c2.06336 -0.9728 4.38784 -2.0736 5.7344 -3.00032l2.36032 -1.45408c-0.23552 0.1792 0.65536 -0.44032 0.68608 -0.47616 l0.32256 -0.256l0.64512 -0.52224l1.29024 -1.03936c6.91712 -5.56544 12.19072 -13.14816 15.60064 -21.1968c6.77888 -16.27648 7.50592 -33.63328 6.19008 -50.33472 C424.07936 276.21888 413.01504 243.75808 398.47424 212.8384zM234.28608 54.87616c-24.35584 20.92544 -46.52544 44.77952 -66.45248 70.29248 c-12.84608 16.71168 -24.77568 34.16064 -35.46112 52.2496c-1.54624 -3.05152 -3.09248 -6.08256 -4.63872 -9.3184c-8.70912 -18.4576 -17.47968 -39.97696 -23.02464 -64.32256 c-2.73408 -12.13952 -4.77184 -24.98048 -4.99712 -38.12352c-0.02048 -13.02528 1.72032 -26.78272 7.97184 -37.82144c6.1696 -11.08992 17.2288 -17.60768 30.14144 -18.176 c12.96896 -0.74752 26.97728 3.54304 40.40704 9.34912C197.82656 27.75552 216.48384 40.42752 234.28608 54.87616zM379.62752 177.41824 c-10.68544 -18.08896 -22.61504 -35.53792 -35.46112 -52.2496c-19.92704 -25.51296 -42.09664 -49.37216 -66.45248 -70.29248c17.80224 -14.44864 36.45952 -27.12064 56.05376 -35.8656 c13.42976 -5.80608 27.43296 -10.10176 40.40704 -9.34912c12.90752 0.5632 23.97184 7.08608 30.14144 18.176c6.25152 11.0336 7.99232 24.79616 7.97184 37.82144 c-0.22528 13.14304 -2.25792 25.984 -4.99712 38.12352c-5.54496 24.3456 -14.31552 45.85984 -23.02464 64.32256C382.72 171.3408 381.16864 174.37184 379.62752 177.41824zM332.02176 252.30848c0 0 2.55488 -3.33824 7.3472 -9.60512c4.67456 -6.3488 11.50464 -15.68768 19.66592 -27.9552c1.37216 -2.048 2.82112 -4.30592 4.2496 -6.51776 c3.3536 5.74464 6.67136 11.50976 9.78944 17.3312c14.79168 28.288 27.33568 57.6512 32.27136 86.84032c2.23744 14.44864 2.91328 29.06624 -1.05472 41.4208 c-1.95584 6.12864 -5.05856 11.53024 -9.33888 15.72352l-0.79872 0.7936l-0.39424 0.39936l-0.19968 0.19968c-0.13312 0.12288 0.54272 -0.384 0.11776 -0.07168l-2.21696 1.664 c-1.60256 1.31072 -2.64192 1.72544 -3.8144 2.4576c-2.41664 1.39264 -5.47328 2.55488 -8.42752 3.4048c-12.23168 3.29728 -25.97888 1.536 -38.5792 -1.72032 c-12.672 -3.5072 -24.59136 -8.68352 -35.6608 -14.3616c-17.75616 -9.16992 -33.20832 -19.87584 -46.73024 -30.47936c2.33472 -2.05824 4.6336 -4.10624 6.85568 -6.12352 c15.09376 -13.96736 27.51488 -26.86464 37.31968 -37.85728c9.8304 -10.97216 17.17248 -19.9168 22.13888 -26.0352C329.42592 255.62112 332.02176 252.30848 332.02176 252.30848 s-2.62656 3.28704 -7.54688 9.45152c-5.0688 6.03136 -12.34944 15.03744 -22.45632 25.73824c-10.06592 10.7264 -22.77888 23.3216 -38.46656 36.4544 C261.12 325.98016 258.58048 328.02816 256 330.08128c-2.58048 -2.048 -5.12 -4.10112 -7.55712 -6.12352c-15.68256 -13.1328 -28.40064 -25.728 -38.46656 -36.4544 c-10.10688 -10.70592 -17.38752 -19.712 -22.45632 -25.73824c-4.92032 -6.16448 -7.54688 -9.45152 -7.54688 -9.45152s2.59584 3.30752 7.46496 9.51296 c4.97152 6.1184 12.30848 15.06304 22.13888 26.0352c9.8048 10.98752 22.22592 23.88992 37.31968 37.85728c2.22208 2.0224 4.52096 4.06528 6.85568 6.12352 c-13.52192 10.60352 -28.97408 21.30944 -46.73024 30.47936c-11.06944 5.67296 -22.9888 10.8544 -35.6608 14.3616c-12.60032 3.25632 -26.34752 5.01248 -38.5792 1.72032 c-2.95424 -0.84992 -6.016 -2.01216 -8.42752 -3.4048c-1.17248 -0.73728 -2.21184 -1.152 -3.8144 -2.4576l-2.21696 -1.664c-0.42496 -0.31744 0.256 0.19456 0.11776 0.07168 l-0.19968 -0.19968l-0.39424 -0.39936l-0.79872 -0.7936c-4.28032 -4.19328 -7.38304 -9.59488 -9.33888 -15.72352c-3.968 -12.35456 -3.29216 -26.97216 -1.05472 -41.4208 c4.93568 -29.18912 17.47968 -58.55232 32.27136 -86.84032c3.11808 -5.82144 6.43584 -11.58656 9.78944 -17.3312c1.42848 2.21696 2.88256 4.46976 4.2496 6.51776 c8.16128 12.26752 14.99136 21.6064 19.66592 27.9552c4.79232 6.26688 7.3472 9.60512 7.3472 9.60512s-2.52416 -3.36384 -7.26016 -9.67168 c-4.57728 -6.42048 -11.46368 -15.7184 -19.30752 -28.18048c-1.38752 -2.18624 -2.8416 -4.58752 -4.28544 -6.95808c12.81536 -21.89312 27.20256 -43.22816 42.98752 -63.52896 C211.58912 118.6816 233.10848 95.03232 256 73.7024c22.89152 21.32992 44.41088 44.9792 63.88736 70.272c15.77984 20.3008 30.17216 41.63584 42.98752 63.52896 c-1.44384 2.37568 -2.89792 4.77696 -4.28544 6.95808c-7.83872 12.46208 -14.73024 21.76 -19.30752 28.18048C334.54592 248.94464 332.02176 252.30848 332.02176 252.30848z"/><glyph unicode="&#xE001;" glyph-name="atom7" horiz-adv-x="512" d="M464.34304 154.32192c-1.93024 15.04256 -9.15968 27.15648 -16.70656 37.5552c-5.4784 7.40352 -11.46368 13.95712 -17.60768 19.95776 c5.65248 6.56384 10.9568 13.4144 15.73888 20.63872c8.34048 12.928 15.34976 27.25888 16.98304 43.36128c0.31744 4.01408 0.34816 8.08448 -0.19456 12.12928 c-0.34816 2.04288 -0.52736 3.95776 -1.21856 6.16448l-0.9216 3.16928c-0.32256 0.98304 -0.66048 1.62816 -0.99328 2.45248c-3.08224 7.52128 -8.26368 13.89056 -14.17728 18.52416 c-11.99616 9.27232 -25.6768 12.71296 -38.36928 14.73536c-12.81536 1.90976 -25.18016 1.99168 -36.90496 1.3312c-16.45568 -1.03424 -31.616 -3.49696 -45.568 -6.41024 c-1.93024 5.99552 -4.07552 12.0832 -6.53312 18.26816c-4.42368 10.88 -9.77408 22.02624 -16.97792 32.7936c-7.23968 10.62912 -16.21504 21.52448 -29.74208 28.43136 c-3.44576 1.6384 -6.90688 3.0208 -10.99264 3.8912c-2.05312 0.40448 -4.38272 0.86016 -5.88288 0.90624l-2.53952 0.2048c-0.3072 0.00512 0.23552 0.0256 -0.76288 0.02048 l-0.384 -0.01536l-0.75776 -0.03584l-1.52064 -0.06656c-8.14592 -0.36352 -16.18432 -3.10784 -23.08096 -7.20896c-13.86496 -8.37632 -23.84896 -20.8384 -31.95904 -33.92512 c-8.50944 -14.04928 -15.11936 -29.1328 -20.39296 -44.76928c-10.99264 1.43872 -22.66112 2.4576 -34.99008 2.66752c-11.74528 0.1024 -24.09984 -0.54784 -36.80768 -3.06176 c-12.5952 -2.59584 -26.10176 -6.68672 -37.67296 -16.52224c-2.84672 -2.54976 -5.44256 -5.21216 -7.82848 -8.64256c-1.16736 -1.75104 -2.47296 -3.72736 -3.09248 -5.08416l-1.17248 -2.26304 c-0.11776 -0.2816 0.06656 0.22016 -0.3072 -0.70144l-0.13312 -0.35328l-0.26112 -0.71168l-0.52736 -1.42848c-2.79552 -7.66464 -3.34848 -16.13824 -2.21696 -24.08448 c2.38592 -16.02048 10.05568 -30.02368 19.01568 -42.5472c5.15584 -7.05536 10.81856 -13.68576 16.8192 -20.02944c-5.888 -6.29248 -11.59168 -13.15328 -16.74752 -20.8384 c-7.07072 -10.74688 -13.72672 -23.18336 -14.96064 -38.31808c-0.2048 -3.8144 -0.16384 -7.54176 0.57856 -11.65312c0.41472 -2.05312 0.87552 -4.38272 1.41312 -5.7856l0.768 -2.42688 c0.11264 -0.28672 -0.10752 0.20992 0.27648 -0.71168l0.1536 -0.34304l0.31744 -0.6912l0.64512 -1.38752c3.43552 -7.39328 9.0368 -13.77792 15.4624 -18.60096 c13.01504 -9.63584 28.34432 -14.12096 43.53024 -16.64c17.92 -2.77504 36.10112 -2.93888 54.28736 -1.41824c7.4752 -26.69056 17.83296 -52.38272 33.17248 -75.04384 c8.78592 -12.64128 19.36384 -24.576 33.62816 -32.20992c3.60448 -1.82272 7.34208 -3.4048 11.29472 -4.43904c2.0224 -0.4608 3.86048 -1.01888 6.16448 -1.21856l3.28192 -0.35328 c1.02912 -0.0768 1.76128 -0.00512 2.65216 -0.01024c8.12032 -0.01536 15.99488 2.35008 22.51264 6.04672c13.14816 7.57248 21.54496 18.90816 28.24704 29.88032 c6.64064 11.11552 11.41248 22.51776 15.27808 33.6128c5.84192 17.19808 9.5488 33.65376 12.2368 48.8704c22.25664 -1.6896 44.49792 -1.1008 66.16576 3.29728 c15.03744 3.25632 30.1312 8.42752 42.67008 18.65728c3.06176 2.62144 5.95968 5.45792 8.43776 8.71424c1.19808 1.68448 2.42688 3.16928 3.49184 5.2224l1.59232 2.8928 c0.46592 0.9216 0.68096 1.6128 1.03424 2.43712C464.4096 138.69568 465.2544 146.8672 464.34304 154.32192zM336.06144 272.30208 c-1.39264 1.37728 -2.83136 2.70848 -4.29568 4.0192c1.27488 -0.66048 2.51904 -1.28512 3.83488 -1.98656C335.744 273.67424 335.91808 272.95744 336.06144 272.30208zM329.99424 277.84704c-18.00704 15.39072 -40.89856 25.20576 -66.03776 26.79808c-2.68288 0.90624 -5.58592 1.85344 -8.68864 2.85184c1.72544 0.60416 3.50208 1.20832 5.3504 1.81248 c12.8256 4.27008 28.60544 8.90368 47.0272 12.66688c4.23936 0.84992 8.6272 1.65888 13.14304 2.4064c5.43744 -13.85984 9.3952 -27.37152 12.49792 -39.8336 c0.78336 -3.19488 1.43872 -6.2464 2.10944 -9.30816C333.54752 276.1472 331.75552 277.01248 329.99424 277.84704zM263.02464 304.7168 c-2.09408 0.11264 -4.1984 0.18432 -6.31296 0.18432c-3.328 0 -6.62016 -0.17408 -9.87648 -0.45568c2.4576 0.9216 5.0944 1.87392 7.89504 2.86208 C257.67424 306.42176 260.43904 305.55136 263.02464 304.7168zM246.03136 304.384c-21.81632 -2.05312 -41.82016 -10.31168 -58.24512 -22.9888 c2.06848 13.2096 4.62848 26.30144 7.96672 38.92224c1.67424 -0.22528 3.34336 -0.4608 4.97152 -0.71168c18.57536 -2.8928 34.56 -6.76864 47.57504 -10.42944 c2.03776 -0.57344 3.98336 -1.13664 5.86752 -1.69984C251.27424 306.40128 248.56064 305.36704 246.03136 304.384zM156.05248 243.13856 c-7.81824 -15.36512 -12.25728 -32.73728 -12.25728 -51.1488c0 -1.8688 0.05632 -3.73248 0.14336 -5.5808c-14.34624 8.96512 -28.13952 18.60096 -40.48896 29.2096 c12.75392 13.13792 26.09664 23.98208 38.51264 33.12128c5.48864 4.00384 10.74688 7.57248 15.88736 10.95168C157.12768 254.19264 156.55424 248.66304 156.05248 243.13856zM338.94912 114.6624c0.37888 0.39936 0.768 0.78848 1.13664 1.18784c-0.06656 -0.43008 -0.14336 -0.88064 -0.21504 -1.31072 C339.56352 114.5856 339.25632 114.61632 338.94912 114.6624zM338.00704 270.30528c-0.16384 0.99328 -0.34304 2.0224 -0.51712 3.04128 c9.75872 -5.20192 20.61824 -11.4688 32.17408 -19.10272c12.90752 -8.59648 26.8288 -18.85184 40.26368 -31.47264c-12.1856 -11.53536 -25.96352 -22.0928 -40.33536 -31.96928 c0 0.39936 0.0256 0.7936 0.0256 1.19296C369.62304 222.40768 357.57056 249.99424 338.00704 270.30528zM370.0992 328.30464c11.43808 -0.24576 23.33696 -1.26464 35.10784 -3.968 c11.6224 -2.86208 23.51104 -7.4496 31.9744 -15.46752c8.52992 -7.94624 11.89888 -19.25632 9.55392 -30.88896c-2.20672 -11.74016 -9.12896 -23.28064 -17.27488 -33.98144 c-4.7872 -6.144 -10.13248 -11.99104 -15.83104 -17.6384c-14.72512 11.9552 -29.38368 21.53472 -42.83904 29.67552c-12.1856 7.21408 -23.4496 13.27616 -33.47968 18.26816 c-0.60416 3.5072 -1.21856 7.01952 -1.93536 10.71104c-2.51904 12.43648 -5.66272 25.92256 -10.08128 40.07424C339.16416 327.19872 354.18112 328.60672 370.0992 328.30464zM210.7904 361.30816c6.20032 11.91936 13.64992 23.1168 23.31136 30.1056c4.78208 3.4816 10.01472 5.7856 15.46752 6.57408l1.01888 0.14848l0.51712 0.08192l0.26112 0.03584 c-0.78848 0.03072 -0.04096 0.01536 -0.13312 0.02048l2.54976 0.03072c1.89952 0.09728 2.8928 -0.15872 4.16256 -0.256c2.54976 -0.28672 5.44768 -1.09056 8.09984 -2.05824 c10.84928 -4.20864 20.0704 -12.99456 27.63776 -22.26176c7.48032 -9.48224 13.4912 -19.80416 18.60096 -30.03392c2.78016 -5.60128 5.248 -11.18208 7.49056 -16.73216 c-4.31104 -0.94208 -8.54528 -1.92 -12.5952 -2.9184c-18.304 -4.6848 -33.98656 -9.67168 -46.71488 -14.27456c-2.00192 -0.7168 -3.89632 -1.408 -5.75488 -2.09408 c-2.01728 0.64 -4.09088 1.29536 -6.27712 1.96608c-12.928 3.99872 -28.8256 8.24832 -47.32928 12.07808c-1.55648 0.31232 -3.15392 0.60928 -4.74112 0.90624 C200.08448 336.25088 204.75904 349.30688 210.7904 361.30816zM63.9232 269.16352c-1.37216 5.74976 -1.48992 11.4688 -0.11264 16.80384l0.25088 0.9984l0.12288 0.50688 l0.06144 0.256c-0.32256 -0.72192 -0.02048 -0.03072 -0.06144 -0.11264l0.95232 2.36544c0.64 1.792 1.26464 2.6112 1.83808 3.7376c1.23392 2.24256 3.09248 4.608 5.0176 6.68672 c8.05888 8.3968 19.71712 13.53728 31.17568 16.95232c11.63264 3.26144 23.46496 4.83328 34.87744 5.62176c11.70432 0.768 22.96832 0.60416 33.66912 -0.11264 c-4.10624 -12.72832 -7.38304 -25.79456 -9.97888 -39.02464c-1.44384 -7.41376 -2.65216 -14.90432 -3.6608 -22.44096c-5.55008 -3.3536 -11.2896 -6.92224 -17.3312 -10.89536 c-12.99968 -8.704 -27.12064 -18.90304 -41.1904 -31.43168c-6.01088 5.41184 -11.68384 11.04384 -16.80384 16.9984C74.13248 246.37952 66.6624 257.5616 63.9232 269.16352zM117.6064 106.25024 c-13.37856 1.19808 -26.56768 3.81952 -36.70528 10.09152c-5.03296 3.0976 -9.1648 7.06048 -11.96544 11.80672L68.4032 129.024l-0.27136 0.45056l-0.13824 0.22016 c0.2816 -0.73728 0.01024 -0.03584 0.03584 -0.12288l-0.99328 2.34496c-0.8192 1.72032 -0.95744 2.73408 -1.35168 3.9424c-0.71168 2.46784 -1.07008 5.45792 -1.17248 8.27904 c-0.24064 11.63264 4.37248 23.51104 10.0608 34.02752c4.12672 7.32672 8.91392 14.12608 13.96224 20.5056c14.11584 -14.05952 30.0544 -26.47552 46.84288 -37.68832 c5.27872 -3.51232 10.69568 -6.86592 16.1792 -10.13248c2.05312 -5.25824 4.48512 -10.32704 7.28064 -15.1552c1.31584 -9.20064 2.89792 -18.33984 4.82304 -27.40224 C148.01408 106.0864 132.5312 105.12384 117.6064 106.25024zM320.01024 43.29984c-4.57728 -10.48064 -10.05568 -21.0944 -17.03424 -30.96064c-7.0656 -9.65632 -15.84128 -18.8928 -26.4704 -23.66976 c-10.5984 -4.85376 -22.33856 -3.67616 -32.20992 2.92352c-10.0096 6.5024 -18.048 17.30048 -24.84224 28.90752c-11.41248 20.0448 -18.97472 43.37152 -24.6016 67.51744 c4.24448 0.70144 8.48384 1.45408 12.70784 2.29888c14.85824 -7.20384 31.53408 -11.2384 49.152 -11.2384c19.712 0 38.23616 5.06368 54.36928 13.93664 c0.04096 0 0.0768 -0.01024 0.11776 -0.01536c7.95648 -1.19296 15.92832 -2.1504 23.9104 -2.82112C331.67872 75.33056 327.00416 59.4176 320.01024 43.29984zM436.89984 124.76928 c-9.85088 -6.73792 -22.912 -10.00448 -36.23424 -11.81184c-18.95936 -2.33984 -38.97856 -1.35168 -59.1872 1.37728c0.13824 1.2032 0.29184 2.41152 0.41984 3.59936 c9.33888 10.73152 16.67584 23.22432 21.44768 36.94592c5.75488 3.77344 11.42272 7.66464 16.96256 11.74016c16.29696 12.04224 31.68256 25.26208 45.1584 40.0384 c5.31968 -6.10816 10.40384 -12.65152 14.848 -19.74272c6.1952 -10.23488 11.35616 -21.89312 11.66848 -33.54112C452.39808 141.7216 446.79168 131.33312 436.89984 124.76928z"/><glyph unicode="&#xE002;" glyph-name="bright4" horiz-adv-x="512" d="M256 315.40224c-65.3824 0 -118.40512 -50.78016 -118.40512 -113.42848c0 -74.3936 51.6608 -93.34784 51.6608 -136.64256c0 -10.7008 8.18176 -20.65408 20.46976 -27.97568 c-2.57024 -2.12992 -4.00384 -4.47488 -4.00384 -6.93248c0 -3.29728 2.59072 -6.37952 7.04512 -9.02144c-4.17792 -2.59072 -6.6048 -5.57056 -6.6048 -8.76544 c0 -3.21536 2.47808 -6.22592 6.74816 -8.83712c-4.36224 -2.62144 -6.90176 -5.67296 -6.90176 -8.92928c0 -3.96288 3.74784 -7.60832 10.01472 -10.56768 c-2.42688 -2.2016 -3.81952 -4.63872 -3.81952 -7.20896c0 -7.56736 11.80672 -14.01856 28.40576 -16.5888c2.9184 -5.39648 8.83712 -9.14432 15.73888 -9.14432 c6.89152 0 12.8 3.71712 15.7184 9.10336c16.75264 2.53952 28.69248 9.0112 28.69248 16.61952c0 2.52928 -1.3312 4.93568 -3.70688 7.10656 c6.38976 2.97984 10.21952 6.66624 10.21952 10.67008c0 3.2256 -2.47808 6.2464 -6.7584 8.84736c4.352 2.62144 6.90176 5.66272 6.90176 8.91904 c0 3.29728 -2.60096 6.37952 -7.05536 9.02144c4.1984 2.58048 6.61504 5.57056 6.61504 8.76544c0 2.54976 -1.55648 4.95616 -4.31104 7.14752 c12.09344 7.30112 20.13184 17.152 20.13184 27.76064c0 43.29472 51.59936 62.2592 51.59936 136.64256C374.40512 264.62208 321.39264 315.40224 256 315.40224zM317.82912 131.77856 c-11.80672 -17.32608 -25.14944 -36.89472 -25.96864 -63.81568c-4.0448 -4.52608 -18.51392 -11.86816 -35.81952 -11.86816c-17.31584 0 -31.7952 7.35232 -35.84 11.8784 c-0.8192 26.9312 -14.1824 46.49984 -25.99936 63.82592c-13.17888 19.31264 -25.62048 37.55008 -25.62048 70.18496c0 45.45536 39.2192 82.44224 87.41888 82.44224 s87.41888 -36.98688 87.41888 -82.44224C343.41888 169.33888 330.98752 151.0912 317.82912 131.77856zM256 355.18464c8.51968 0 15.49312 9.216 15.49312 20.48V412.16c0 11.264 -6.97344 20.48 -15.49312 20.48s-15.49312 -9.216 -15.49312 -20.48v-36.49536 C240.50688 364.3904 247.48032 355.18464 256 355.18464zM176.60928 333.90592c7.38304 4.25984 8.79616 15.72864 3.1744 25.47712l-18.23744 31.61088c-5.632 9.75872 -16.2816 14.25408 -23.66464 9.99424 s-8.8064 -15.72864 -3.18464 -25.47712l18.25792 -31.61088C158.58688 334.14144 169.22624 329.64608 176.60928 333.90592zM108.4928 299.44832L76.9024 317.696c-9.75872 5.632 -21.22752 4.20864 -25.48736 -3.1744s0.22528 -18.0224 9.99424 -23.6544l31.60064 -18.24768 c9.75872 -5.632 21.22752 -4.20864 25.47712 3.1744C122.73664 283.17696 118.25152 293.81632 108.4928 299.44832zM450.60096 101.9392l-31.60064 18.24768c-9.75872 5.632 -21.22752 4.20864 -25.47712 -3.1744c-4.25984 -7.38304 0.22528 -18.0224 9.99424 -23.6544l31.5904 -18.24768 c9.75872 -5.632 21.22752 -4.20864 25.48736 3.1744S460.35968 96.3072 450.60096 101.9392zM97.21856 196.4032c0 8.52992 -9.216 15.49312 -20.48 15.49312H40.2432c-11.264 0 -20.48 -6.97344 -20.48 -15.49312c0 -8.51968 9.216 -15.49312 20.48 -15.49312h36.49536 C88.00256 180.91008 97.21856 187.88352 97.21856 196.4032zM471.7568 211.89632h-36.49536c-11.264 0 -20.48 -6.97344 -20.48 -15.49312c0 -8.51968 9.216 -15.49312 20.48 -15.49312h36.49536c11.264 0 20.48 6.97344 20.48 15.49312 C492.2368 204.92288 483.0208 211.89632 471.7568 211.89632zM92.99968 120.18688l-31.60064 -18.24768c-9.75872 -5.632 -14.25408 -16.27136 -9.99424 -23.6544s15.72864 -8.8064 25.48736 -3.1744l31.5904 18.24768 c9.75872 5.632 14.25408 16.27136 9.99424 23.6544C114.2272 124.38528 102.7584 125.81888 92.99968 120.18688zM419.00032 272.61952l31.60064 18.24768c9.75872 5.632 14.25408 16.27136 9.99424 23.6544s-15.72864 8.8064 -25.48736 3.1744l-31.5904 -18.24768 c-9.75872 -5.632 -14.25408 -16.27136 -9.99424 -23.6544C397.7728 268.41088 409.2416 266.98752 419.00032 272.61952zM374.1184 400.9984c-7.38304 4.25984 -18.03264 -0.23552 -23.66464 -9.99424l-18.23744 -31.61088c-5.632 -9.75872 -4.20864 -21.21728 3.1744 -25.47712 s18.0224 0.23552 23.6544 9.99424l18.25792 31.61088C382.93504 385.26976 381.50144 396.73856 374.1184 400.9984z"/><glyph unicode="&#xE003;" glyph-name="computer32" horiz-adv-x="512" d="M373.592 351.512H147.624c-23.712 0 -43.04 -19.312 -43.04 -43.04v-225.976c0 -23.752 19.328 -43.048 43.04 -43.048h225.968 c23.728 0 43.048 19.296 43.048 43.048V308.48C416.64 332.2 397.32 351.512 373.592 351.512zM440.68 284.016h41.616c3.84 0 6.968 3.112 6.968 6.952c0 3.84 -3.128 6.968 -6.968 6.968h-41.616 c-3.832 0 -6.952 -3.128 -6.952 -6.968C433.728 287.136 436.848 284.016 440.68 284.016zM482.296 260.032h-41.616c-3.832 0 -6.952 -3.112 -6.952 -6.968c0 -3.832 3.128 -6.952 6.952 -6.952h41.616 c3.84 0 6.968 3.128 6.968 6.952C489.264 256.92 486.144 260.032 482.296 260.032zM482.296 221.408h-41.616c-3.832 0 -6.952 -3.128 -6.952 -6.952c0 -3.84 3.128 -6.984 6.952 -6.984h41.616 c3.84 0 6.968 3.136 6.968 6.984C489.264 218.28 486.144 221.408 482.296 221.408zM482.296 183.504h-41.616c-3.832 0 -6.952 -3.128 -6.952 -6.976c0 -3.832 3.128 -6.952 6.952 -6.952h41.616 c3.84 0 6.968 3.128 6.968 6.952C489.264 180.384 486.144 183.504 482.296 183.504zM482.296 148.528h-41.616c-3.832 0 -6.952 -3.128 -6.952 -6.952s3.128 -6.952 6.952 -6.952h41.616c3.84 0 6.968 3.128 6.968 6.952 S486.144 148.528 482.296 148.528zM482.296 110.632h-41.616c-3.832 0 -6.952 -3.128 -6.952 -6.976c0 -3.832 3.128 -6.928 6.952 -6.928h41.616 c3.84 0 6.968 3.096 6.968 6.928C489.264 107.504 486.144 110.632 482.296 110.632zM71.312 297.944H29.688c-3.832 0 -6.952 -3.128 -6.952 -6.968c0 -3.84 3.128 -6.952 6.952 -6.952h41.624 c3.832 0 6.96 3.112 6.96 6.952C78.264 294.816 75.136 297.944 71.312 297.944zM71.312 260.032H29.688c-3.832 0 -6.952 -3.112 -6.952 -6.968c0 -3.832 3.128 -6.952 6.952 -6.952h41.624 c3.832 0 6.96 3.128 6.96 6.952C78.264 256.92 75.136 260.032 71.312 260.032zM71.312 221.408H29.688c-3.832 0 -6.952 -3.128 -6.952 -6.952c0 -3.84 3.128 -6.984 6.952 -6.984h41.624 c3.832 0 6.96 3.136 6.96 6.984C78.264 218.28 75.136 221.408 71.312 221.408zM71.312 183.504H29.688c-3.832 0 -6.952 -3.128 -6.952 -6.976c0 -3.832 3.128 -6.952 6.952 -6.952h41.624 c3.832 0 6.96 3.128 6.96 6.952C78.264 180.384 75.136 183.504 71.312 183.504zM71.312 148.528H29.688c-3.832 0 -6.952 -3.128 -6.952 -6.952s3.128 -6.952 6.952 -6.952h41.624c3.832 0 6.96 3.128 6.96 6.952 S75.136 148.528 71.312 148.528zM71.312 110.632H29.688c-3.832 0 -6.952 -3.128 -6.952 -6.976c0 -3.832 3.128 -6.928 6.952 -6.928h41.624 c3.832 0 6.96 3.096 6.96 6.928C78.264 107.504 75.136 110.632 71.312 110.632zM354.272 14.264c-3.832 0 -6.96 -3.128 -6.96 -6.952v-41.624c0 -3.832 3.136 -6.952 6.96 -6.952c3.832 0 6.96 3.128 6.96 6.952 v41.624C361.232 11.144 358.112 14.264 354.272 14.264zM316.36 14.264c-3.816 0 -6.936 -3.128 -6.936 -6.952v-41.624c0 -3.832 3.128 -6.952 6.936 -6.952c3.84 0 6.968 3.128 6.968 6.952 v41.624C323.328 11.144 320.2 14.264 316.36 14.264zM277.76 14.264c-3.848 0 -6.96 -3.128 -6.96 -6.952v-41.624c0 -3.832 3.112 -6.952 6.96 -6.952c3.824 0 6.944 3.128 6.944 6.952 v41.624C284.704 11.144 281.576 14.264 277.76 14.264zM239.848 14.264c-3.84 0 -6.968 -3.128 -6.968 -6.952v-41.624c0 -3.832 3.128 -6.952 6.968 -6.952c3.832 0 6.944 3.128 6.944 6.952 v41.624C246.792 11.144 243.68 14.264 239.848 14.264zM204.872 14.264c-3.84 0 -6.968 -3.128 -6.968 -6.952v-41.624c0 -3.832 3.128 -6.952 6.968 -6.952c3.832 0 6.944 3.128 6.944 6.952 v41.624C211.816 11.144 208.696 14.264 204.872 14.264zM166.976 14.264c-3.856 0 -6.968 -3.128 -6.968 -6.952v-41.624c0 -3.832 3.112 -6.952 6.968 -6.952c3.832 0 6.944 3.128 6.944 6.952 v41.624C173.92 11.144 170.808 14.264 166.976 14.264zM354.272 369.752c3.832 0 6.96 3.112 6.96 6.928V418.312c0 3.84 -3.128 6.952 -6.96 6.952c-3.832 0 -6.96 -3.112 -6.96 -6.952v-41.64 C347.312 372.864 350.448 369.752 354.272 369.752zM316.36 369.752c3.84 0 6.968 3.112 6.968 6.928V418.312c0 3.84 -3.128 6.952 -6.968 6.952c-3.816 0 -6.936 -3.112 -6.936 -6.952 v-41.64C309.424 372.864 312.544 369.752 316.36 369.752zM277.76 369.752c3.824 0 6.944 3.112 6.944 6.928V418.312c0 3.84 -3.128 6.952 -6.944 6.952c-3.848 0 -6.96 -3.112 -6.96 -6.952 v-41.64C270.8 372.864 273.904 369.752 277.76 369.752zM239.848 369.752c3.832 0 6.944 3.112 6.944 6.928V418.312c0 3.84 -3.112 6.952 -6.944 6.952c-3.84 0 -6.968 -3.112 -6.968 -6.952 v-41.64C232.88 372.864 236.008 369.752 239.848 369.752zM204.872 369.752c3.832 0 6.944 3.112 6.944 6.928V418.312c0 3.84 -3.112 6.952 -6.944 6.952c-3.84 0 -6.968 -3.112 -6.968 -6.952 v-41.64C197.904 372.864 201.032 369.752 204.872 369.752zM166.976 369.752c3.832 0 6.944 3.112 6.944 6.928V418.312c0 3.84 -3.112 6.952 -6.944 6.952c-3.856 0 -6.968 -3.112 -6.968 -6.952 v-41.64C160.008 372.864 163.12 369.752 166.976 369.752z"/><glyph unicode="&#xE004;" glyph-name="excavator3" horiz-adv-x="512" d="M401.024 226.19136c0 0 26.8896 -1.78624 28.67584 -30.46784c0 0 23.29344 49.2992 69.90784 15.23776h12.54208 C512.14848 210.96 479.89056 296.99264 401.024 226.19136zM429.69856 155.83872c-1.78624 -28.68096 -28.67584 -30.46912 -28.67584 -30.46912 c78.86656 -70.80192 111.12576 15.23264 111.12576 15.23264h-12.54208C452.99264 106.5376 429.69856 155.83872 429.69856 155.83872zM327.52256 181.3728c0 0 1.78368 42.2976 37.64416 43.56096L259.39776 326.58048c0 0 -11.63776 -57.35744 -46.59264 -60.94912 L327.52256 181.3728zM154.09408 142.83712l38.98688 111.31456c-64.5312 -16.85568 -77.97632 38.36864 -77.97632 38.36864l-47.4976 -111.14752 C121.38432 196.6048 154.09408 142.83712 154.09408 142.83712zM422.52416 181.3728c0 21.28128 -17.25888 38.53952 -38.53696 38.53952c-21.28 0 -38.53824 -17.2576 -38.53824 -38.53952 c0 -21.2768 17.25824 -38.53568 38.53824 -38.53568C405.26656 142.83712 422.52416 160.09472 422.52416 181.3728zM366.94976 181.3728 c0 9.40096 7.62944 17.02848 17.03808 17.02848c9.41184 0 17.03488 -7.62752 17.03488 -17.02848c0 -9.40032 -7.62304 -17.024 -17.03488 -17.024 C374.5792 164.3488 366.94976 171.97248 366.94976 181.3728zM132.20352 326.58048c0 -28.29568 22.93888 -51.24544 51.2352 -51.24544c28.30656 0 51.25504 22.94976 51.25504 51.24544 c0 28.29824 -22.94784 51.24352 -51.25504 51.24352C155.1424 377.82464 132.20352 354.87872 132.20352 326.58048zM183.43872 349.2256 c12.5088 0 22.64384 -10.14528 22.64384 -22.64512c0 -12.49664 -10.13504 -22.64256 -22.64384 -22.64256c-12.50048 0 -22.64576 10.14592 -22.64576 22.64256 C160.79296 339.08032 170.93824 349.2256 183.43872 349.2256zM39.88096 104.59392c0 -28.29504 22.94912 -51.2448 51.25312 -51.2448c28.29632 0 51.23584 22.94976 51.23584 51.2448 c0 28.29888 -22.93952 51.2448 -51.23584 51.2448C62.83072 155.83872 39.88096 132.8928 39.88096 104.59392zM91.13408 127.23968 c12.50048 0 22.64512 -10.14656 22.64512 -22.64704c0 -12.49536 -10.14464 -22.64128 -22.64512 -22.64128c-12.51968 0 -22.64448 10.14592 -22.64448 22.64128 C68.49024 117.09376 78.61504 127.23968 91.13408 127.23968zM1.26848 -48.06976h169.3952l-28.29376 101.41888c0 0 -43.264 -50.94912 -102.48896 0L1.26848 -48.06976z"/><glyph unicode="&#xE005;" glyph-name="gearwheels" horiz-adv-x="512" d="M353.98144 161.99168h-19.07712c-3.57888 18.9696 -11.26912 36.96128 -22.49728 52.6336l13.24032 13.24544c1.29024 1.29024 2.01728 3.03616 2.01728 4.864 c0 1.82272 -0.72704 3.57376 -2.01728 4.85888l-23.10656 23.11168c-2.688 2.68288 -7.04 2.68288 -9.728 0l-13.62944 -13.63456c-15.54432 10.624 -33.18272 17.8432 -51.62496 21.11488 v19.36384c0 3.79904 -3.08224 6.88128 -6.88128 6.88128h-32.68096c-3.79904 0 -6.88128 -3.08224 -6.88128 -6.88128v-19.36384c-18.59072 -3.29728 -36.36224 -10.5984 -51.98848 -21.35552 l-13.27104 13.2608c-2.688 2.688 -7.04 2.688 -9.728 0l-23.10656 -23.11168c-1.29024 -1.29024 -2.01728 -3.04128 -2.01728 -4.864s0.72704 -3.57376 2.01728 -4.864l12.99456 -12.98944 c-11.09504 -15.60576 -18.69312 -33.46432 -22.2464 -52.27008h-17.34656c-3.79904 0 -6.88128 -3.07712 -6.88128 -6.88128v-32.67584c0 -3.80416 3.08224 -6.88128 6.88128 -6.88128h16.768 c3.15392 -18.95424 10.4704 -37.08928 21.4016 -53.0688l-12.1856 -12.18048c-2.688 -2.688 -2.688 -7.04512 0 -9.728l23.11168 -23.1168c1.28512 -1.29024 3.04128 -2.01728 4.864 -2.01728 c1.82272 0 3.57376 0.72704 4.864 2.01728l11.8016 11.79648c16.10752 -11.53024 34.59072 -19.32288 54.0672 -22.76864v-16.49152c0 -3.79904 3.08224 -6.88128 6.88128 -6.88128h32.68096 c3.79904 0 6.88128 3.08224 6.88128 6.88128v16.49152c19.31776 3.41504 37.67808 11.12576 53.70368 22.52288l12.16 -12.16c2.58048 -2.58048 7.14752 -2.58048 9.728 0 l23.11168 23.11168c2.688 2.688 2.688 7.04 0 9.728l-12.43648 12.43648c11.07456 16.0768 18.46784 34.3296 21.64736 53.43232h18.50368 c3.79904 0 6.88128 3.07712 6.88128 6.88128v32.67584C360.86272 158.91456 357.78048 161.99168 353.98144 161.99168zM205.20448 66.24256 c-40.05376 0 -72.52992 32.47104 -72.52992 72.52992c0 40.05376 32.47104 72.5248 72.52992 72.5248s72.52992 -32.47104 72.52992 -72.5248 C277.7344 98.7136 245.25824 66.24256 205.20448 66.24256zM232.72448 138.77248c0 -15.20128 -12.32384 -27.52512 -27.52 -27.52512s-27.52 12.32384 -27.52 27.52512 c0 15.19616 12.32384 27.52 27.52 27.52S232.72448 153.96864 232.72448 138.77248zM459.17184 292.9664l-9.23136 3.97312c2.4832 10.87488 2.55488 22.12864 0.20992 32.9472 l9.82528 3.90656c2.01728 0.80384 3.00032 3.08736 2.2016 5.10464l-6.90176 17.35168c-0.80384 2.0224 -3.08736 3.00544 -5.10976 2.2016l-10.12736 -4.02944 c-5.90848 9.31328 -13.78816 17.24416 -23.06048 23.1936l4.23424 9.8304c0.41472 0.95744 0.42496 2.03264 0.04096 3.01056c-0.384 0.96256 -1.14176 1.74592 -2.0992 2.1504 l-17.152 7.39328c-1.99168 0.85504 -4.30592 -0.06656 -5.16608 -2.05312l-4.35712 -10.12224c-10.496 2.3552 -21.39136 2.46272 -31.872 0.31232l-4.09088 10.28096 c-0.80384 2.01728 -3.09248 3.00032 -5.10976 2.2016l-17.35168 -6.90688c-2.01728 -0.80384 -3.00032 -3.09248 -2.2016 -5.10464l4.09088 -10.28608 c-9.17504 -5.67296 -17.06496 -13.30688 -23.0912 -22.31808l-9.84576 4.23936c-1.9968 0.86016 -4.30592 -0.06144 -5.16608 -2.05312l-7.38816 -17.152 c-0.41472 -0.96256 -0.43008 -2.03776 -0.04096 -3.01056c0.384 -0.96768 1.14176 -1.74592 2.0992 -2.15552l9.64096 -4.15744c-2.59072 -10.624 -2.85696 -21.71392 -0.768 -32.45056 l-9.21088 -3.66592c-2.01728 -0.80384 -3.00032 -3.08736 -2.2016 -5.10464l6.90176 -17.35168c0.80384 -2.0224 3.08736 -3.00544 5.10976 -2.2016l8.90368 3.54304 c5.67808 -9.40032 13.39392 -17.4848 22.57408 -23.65952l-3.89632 -9.04192c-0.85504 -1.9968 0.06144 -4.31104 2.05312 -5.1712l17.152 -7.38816 c0.95744 -0.4096 2.03776 -0.43008 3.00544 -0.04096c0.96768 0.384 1.74592 1.14176 2.15552 2.09408l3.77344 8.7552c10.98752 -2.71872 22.44608 -2.95424 33.51552 -0.67072 l3.4816 -8.75008c0.80384 -2.0224 3.08736 -3.00544 5.10976 -2.2016l17.35168 6.90176c2.01728 0.79872 3.00032 3.09248 2.2016 5.10464l-3.4816 8.7552 c9.53344 5.89312 17.65376 13.86496 23.7568 23.30624l9.02656 -3.8912c1.91488 -0.8192 4.34176 0.13824 5.16608 2.05312l7.38816 17.152 C462.08512 289.79712 461.16352 292.10624 459.17184 292.9664zM391.39328 276.18304c-21.26848 -8.45824 -45.36832 1.92 -53.82656 23.18848s1.92 45.3632 23.18848 53.83168 c21.26848 8.45312 45.36832 -1.92512 53.83168 -23.18848C423.04512 308.74624 412.66176 284.6464 391.39328 276.18304zM390.68672 320.50688 c3.21024 -8.06912 -0.72704 -17.21344 -8.79616 -20.42368s-17.21344 0.73216 -20.4288 8.80128c-3.20512 8.06912 0.73216 17.21344 8.80128 20.42368S387.4816 328.576 390.68672 320.50688z"/><glyph unicode="&#xE006;" glyph-name="snow42" horiz-adv-x="447" d="M439.73682139136 85.469151522167l-55.283435582822 31.944438013659l46.67206852645 27.795809700197c7.5030906354902 3.6152332445885 9.8263224910291 13.690473434425 5.5591619400394 21.098738279894c-4.3442065053826 7.5860632017595 -13.720106493807 9.1862484083806 -20.837967357333 5.0376200949184l-62.229424701933 -36.448663039704 l-98.897372381063 57.547401319597l98.897372381063 56.95474013196l62.229424701933 -36.38939692094c1.9439286954509 -1.4223868503299 4.4449589072809 -2.2521125130223 7.2245398773006 -2.2521125130223c5.2746845699734 0 9.9981942354439 2.4891769880773 13.613427480032 7.230466489177 c4.1664081490913 7.5267970829957 1.9439286954509 17.483505035305 -5.5591619400394 21.098738279894l-46.67206852645 27.795809700197l55.283435582822 31.944438013659c7.2067600416715 4.1486283134622 9.6840838059961 13.45340895937 5.5591619400394 21.098738279894c-3.9411968977891 7.3489987267045 -13.690473434425 9.8974418335455 -21.116518115523 5.5710151637921 l-55.561986341012 -32.240768607478l-0.82972566269244 55.591619400394c-0.13038546128024 8.5935872207431 -6.6674383609214 15.527723116101 -15.278805417294 15.527723116101s-15.343998147934 -7.467530964232 -15.278805417294 -15.527723116101l0.55117490450284 -73.371455029517l-98.340270864683 -56.95474013196v115.5689315893l61.950873943743 35.322606783192 c7.230466489177 4.0893621946985 10.383424007408 13.631207315662 6.1103368445422 21.098738279894c-4.3382798935062 7.5860632017595 -13.245977543697 9.8381757147818 -20.837967357333 5.5710151637921l-47.223243430953 -26.669753443686V432.4722768839c0 8.5935872207431 -6.945989119111 15.527723116101 -15.557356175483 15.527723116101 s-15.278805417294 -6.9341358953583 -15.278805417294 -15.527723116101v-63.651811552263l-48.89454798009 27.262414631323C152.0946405834 400.29077439518 143.42400740826 397.92012964463 139.1509202454 390.51186479917c-4.3382798935062 -7.5860632017595 -1.6416714897558 -16.890843847668 5.8317860863526 -21.098738279894l63.622178492881 -35.856001852066v-114.44287533279 l-100.5686769302 58.021530269707l0.55710151637921 71.712003704132c0.83565227456882 8.0601921518694 -6.3888876027318 15.527723116101 -15.000254659104 15.527723116101h-0.55710151637921c-8.0542655399931 0 -15.189906239148 -6.9341358953583 -15.278805417294 -15.527723116101l-0.55710151637921 -53.932168075009l-54.169232550064 31.114712350967 c-7.562356754254 4.3856927885172 -16.896770459544 1.7779835629124 -20.837967357333 -5.5117490450284c-4.1249218659567 -7.704595439287 -1.9913415904619 -16.77231161014 5.5591619400394 -21.158004398657l54.726334066443 -31.64810741984l-47.786271559208 -28.625535362889c-7.4971640236138 -3.6152332445885 -9.8381757147818 -13.690473434425 -5.2746845699734 -21.098738279894 c2.9395994906818 -4.8005556198634 7.2186132654242 -7.230466489177 13.056325963653 -7.230466489177c3.0522051163329 0 5.5947216112976 0.7704595439287 8.0542655399931 2.2521125130223l62.507975460123 36.922791989814l100.29012617201 -57.488135200833l-100.29012617201 -58.080796388471L30.527977775205 171.34575761083 c-7.5030906354902 4.3856927885172 -17.175321217734 2.3113786317861 -21.110591503646 -5.0376200949184c-4.1249218659567 -7.6453293205232 -1.8846625766871 -16.831577728904 5.2746845699734 -21.098738279894l47.786271559208 -28.32920476907l-54.726334066443 -31.944438013659C0.21928463942586 80.550063664776 -2.2224794536405 71.304549137632 2.1928463942586 63.777752054636 c3.0877647875912 -5.2154184512096 7.2245398773006 -7.7638615580507 13.056325963653 -7.7638615580507c1.3868271790717 0 4.1664081490913 0.82972566269244 7.7816413936798 2.2521125130223l54.169232550064 31.114712350967l0.55710151637921 -53.932168075009c0.088899178145619 -8.5935872207431 7.2245398773006 -15.231392522283 15.278805417294 -15.231392522283h0.55710151637921 c8.6113670563723 0 15.065447389744 7.1712003704132 15.000254659104 15.82405370992l-0.55710151637921 71.652737585369l100.5686769302 57.488135200833v-113.85021414516l-63.622178492881 -35.856001852066c-7.5919898136358 -4.2671605509897 -10.247111934252 -13.571941196898 -5.8317860863526 -21.098738279894 c3.0877647875912 -5.2746845699734 7.2245398773006 -7.8231276768144 13.056325963653 -7.8231276768144c2.7795809700197 0 5.3398773006135 0.47412895010997 7.5030906354902 1.7187174441486l48.89454798009 27.736543581433v-64.71860169001c0 -8.5935872207431 6.6674383609214 -15.290658641046 15.278805417294 -15.290658641046 s15.557356175483 6.6970714203033 15.557356175483 15.290658641046V14.942470193309l47.223243430953 -26.669753443686c2.1632133348767 -1.2445884940387 4.7235096654705 -1.7187174441486 7.2245398773006 -1.7187174441486c6.1103368445422 0 10.614561870587 2.4891769880773 13.613427480032 7.8231276768144 c4.2197476559787 7.467530964232 1.4935061928464 16.831577728904 -6.1103368445422 21.098738279894l-61.950873943743 34.729945595555v115.5689315893l98.340270864683 -56.95474013196l-0.55117490450284 -72.77879384188c-0.071119342516495 -8.6528533395069 6.6674383609214 -15.82405370992 15.278805417294 -15.82405370992 s15.148419956013 6.6378053015395 15.278805417294 15.231392522283l0.82972566269244 55.887949994212l55.561986341012 -32.537099201296c2.1454334992476 -1.2445884940387 5.0020604236601 -1.6594513253849 8.0601921518694 -1.6594513253849c5.8317860863526 0 10.110799861095 2.4299108693136 13.056325963653 7.230466489177 C449.85354786434 71.778678087742 446.94358143304 81.320523208705 439.73682139136 85.469151522167z"/><glyph unicode="&#xE007;" glyph-name="snowflake131" horiz-adv-x="465" d="M454.63466666667 120.14933333333l-11.072 41.237333333333l-85.76 -22.997333333333l-7.4666666666667 3.9253333333333L337.04533333333 192l13.312 49.685333333333l7.488 3.9253333333333l85.738666666667 -22.976l11.093333333333 41.216 l-59.2 1.3866666666667l69.333333333333 36.266666666667l-21.333333333333 36.949333333333l-66.133333333333 -41.92l28.416 52.010666666667l-41.258666666667 11.050666666667l-22.954666666667 -85.76l-7.104 -4.5013333333333l-49.706666666667 13.333333333333L248.32 319.04 l0.384 8.448l62.741333333333 62.762666666667l-30.165333333333 30.165333333333l-30.826666666667 -50.624L253.696 448h-42.666666666667l3.264 -78.208L183.44533333333 420.416L153.28 390.25066666667l62.762666666667 -62.762666666667l0.36266666666667 -8.448 L180.01066666667 282.66666666667L130.304 269.35466666667L123.17866666667 273.856l-22.954666666667 85.76L59.008 348.56533333333l28.416 -52.010666666667L21.333333333333 338.47466666667L0 301.52533333333l69.333333333333 -36.266666666667L10.090666666667 263.85066666667l11.072 -41.216 L106.88 245.61066666667L114.34666666667 241.70666666667L127.65866666667 192L114.34666666667 142.29333333333L106.88 138.368l-85.738666666667 22.997333333333l-11.072 -41.258666666667l59.221333333333 -1.3653333333333l-69.333333333333 -36.266666666667l21.333333333333 -36.949333333333L87.424 87.466666666667 l-28.416 -52.010666666667l41.237333333333 -11.093333333333l22.954666666667 85.781333333333l7.1253333333333 4.5226666666667l49.706666666667 -13.312l36.373333333333 -36.373333333333l-0.36266666666667 -8.448l-62.762666666667 -62.762666666667l30.165333333333 -30.165333333333l30.848 50.624 L211.02933333333 -64h42.666666666667l-3.2426666666667 78.208l30.826666666667 -50.624l30.165333333333 30.165333333333l-62.741333333333 62.741333333333l-0.384 8.448l36.394666666667 36.394666666667l49.685333333333 13.290666666667l7.104 -4.5013333333333l22.976 -85.781333333333 l41.237333333333 11.072L377.30133333333 87.466666666667l66.112 -41.941333333333l21.333333333333 36.949333333333l-69.333333333333 36.266666666667L454.63466666667 120.14933333333zM312.36266666667 162.21866666667L255.36 192l57.002666666667 29.802666666667L304.36266666667 192 L312.36266666667 162.21866666667zM268.352 254.336l29.802666666667 -7.9786666666667l-54.314666666667 -34.453333333333l2.6666666666667 64.256L268.352 254.336zM196.352 254.336l21.802666666667 21.824l2.6666666666667 -64.256 L166.57066666667 246.35733333333L196.352 254.336zM152.36266666667 221.80266666667L209.344 192l-57.002666666667 -29.781333333333L160.36266666667 192L152.36266666667 221.80266666667zM196.352 129.664l-29.781333333333 7.9786666666667l54.293333333333 34.432 l-2.6666666666667 -64.256L196.352 129.664zM268.352 129.664l-21.802666666667 -21.824l-2.6666666666667 64.256l54.293333333333 -34.410666666667L268.352 129.664z"/><glyph unicode="&#xE008;" glyph-name="snowflake144" horiz-adv-x="512" d="M442.524 134.438l-45.643 -12.23l-30.762 17.761l50.451 13.519c5.334 1.43 8.5 6.913 7.071 12.247 s-6.914 8.504 -12.248 7.071l-69.769 -18.694L315.2 169.367c-0.891 0.514 -1.828 0.875 -2.781 1.092l28.071 12.354 c3.626 1.597 5.969 5.184 5.972 9.146s-2.334 7.553 -5.959 9.154l-28.14 12.431c0.972 0.216 1.93 0.563 2.837 1.088l26.426 15.257 l69.771 -18.693c0.867 -0.232 1.737 -0.344 2.594 -0.344c4.415 0.001 8.456 2.947 9.653 7.415c1.429 5.335 -1.736 10.818 -7.071 12.247 l-50.452 13.518l30.761 17.76l45.644 -12.229c0.867 -0.232 1.737 -0.344 2.594 -0.344c4.415 0.001 8.456 2.947 9.653 7.415 c1.429 5.335 -1.736 10.818 -7.071 12.247l-26.324 7.053l25.258 14.583c4.783 2.762 6.422 8.877 3.66 13.66s-8.877 6.423 -13.66 3.66 l-25.26 -14.584l7.053 26.325c1.429 5.335 -1.736 10.818 -7.071 12.247c-5.335 1.43 -10.818 -1.736 -12.247 -7.071l-12.229 -45.643 l-30.762 -17.761l13.519 50.451c1.43 5.334 -1.736 10.817 -7.071 12.247c-5.335 1.432 -10.818 -1.736 -12.248 -7.071l-18.695 -69.77 l-26.424 -15.256c-0.882 -0.51 -1.655 -1.134 -2.315 -1.842l3.335 30.475c0.431 3.939 -1.504 7.761 -4.935 9.745 c-3.431 1.983 -7.709 1.754 -10.907 -0.584l-24.835 -18.155c0.296 0.945 0.457 1.951 0.457 2.994v30.513l51.075 51.077 c3.905 3.905 3.905 10.237 0 14.143c-3.905 3.904 -10.237 3.904 -14.142 0L266 313.384V348.902l33.413 33.415 c3.905 3.905 3.905 10.237 0 14.143c-3.905 3.904 -10.237 3.904 -14.142 0L266 377.188V406.354c0 5.522 -4.477 10 -10 10s-10 -4.478 -10 -10 v-29.167l-19.271 19.271c-3.905 3.904 -10.237 3.904 -14.143 0c-3.905 -3.905 -3.905 -10.237 0 -14.143L246 348.902v-35.52l-36.933 36.932 c-3.905 3.904 -10.237 3.904 -14.142 0c-3.905 -3.905 -3.905 -10.237 0 -14.143L246 285.098v-30.513c0 -1.008 0.152 -1.979 0.43 -2.897 l-24.696 18.104c-3.195 2.343 -7.473 2.576 -10.906 0.599c-3.433 -1.979 -5.374 -5.799 -4.948 -9.738l3.31 -30.621 c-0.676 0.741 -1.474 1.394 -2.389 1.922l-26.425 15.257l-18.696 69.77c-1.429 5.335 -6.912 8.502 -12.248 7.071 c-5.334 -1.43 -8.5 -6.913 -7.071 -12.247l13.52 -50.451l-30.762 17.76l-12.231 45.644c-1.429 5.334 -6.914 8.501 -12.248 7.07 c-5.335 -1.43 -8.5 -6.913 -7.071 -12.248l7.054 -26.323l-25.258 14.583c-4.782 2.76 -10.898 1.123 -13.66 -3.66 c-2.762 -4.783 -1.123 -10.898 3.66 -13.66l25.26 -14.584l-26.325 -7.054c-5.334 -1.43 -8.5 -6.913 -7.071 -12.247 c1.197 -4.468 5.237 -7.415 9.653 -7.415c0.856 0 1.728 0.111 2.595 0.344l45.643 12.229l30.762 -17.76L95.43 230.513 c-5.334 -1.43 -8.5 -6.913 -7.071 -12.247c1.197 -4.468 5.237 -7.415 9.653 -7.415c0.856 0 1.728 0.111 2.595 0.344l69.769 18.694 l26.424 -15.256c0.878 -0.507 1.803 -0.851 2.741 -1.069l-28.024 -12.333c-3.626 -1.597 -5.969 -5.184 -5.972 -9.146 c-0.003 -3.962 2.334 -7.553 5.959 -9.154l28.179 -12.449c-0.988 -0.214 -1.961 -0.579 -2.884 -1.112l-26.426 -15.257l-69.771 18.693 c-5.335 1.432 -10.818 -1.736 -12.247 -7.071c-1.43 -5.335 1.736 -10.818 7.071 -12.247l50.451 -13.518l-30.761 -17.76l-45.644 12.229 c-5.336 1.43 -10.818 -1.736 -12.247 -7.071s1.737 -10.818 7.071 -12.247l26.324 -7.053l-25.258 -14.583 c-4.783 -2.762 -6.422 -8.877 -3.66 -13.66c1.852 -3.208 5.213 -5.002 8.669 -5.002c1.696 0 3.416 0.433 4.991 1.342l25.26 14.584 l-7.054 -26.325c-1.43 -5.334 1.736 -10.817 7.071 -12.247c0.867 -0.232 1.738 -0.344 2.595 -0.344c4.415 0 8.456 2.947 9.653 7.415 l12.23 45.643l30.762 17.761l-13.518 -50.451c-1.43 -5.334 1.736 -10.817 7.071 -12.247c0.867 -0.232 1.738 -0.344 2.595 -0.344 c4.415 0 8.456 2.947 9.653 7.415l18.695 69.77l26.424 15.256c0.883 0.51 1.656 1.135 2.317 1.844l-3.331 -30.434 c-0.431 -3.939 1.504 -7.761 4.935 -9.745c3.43 -1.982 7.708 -1.753 10.907 0.584l24.848 18.164c-0.307 -0.961 -0.476 -1.983 -0.476 -3.046 v-30.514l-51.074 -51.076c-3.905 -3.905 -3.905 -10.237 0 -14.143c1.953 -1.952 4.512 -2.929 7.071 -2.929s5.119 0.977 7.071 2.929 L246 70.616v-35.52l-33.412 -33.414c-3.905 -3.906 -3.905 -10.237 0 -14.143c1.953 -1.952 4.512 -2.929 7.071 -2.929 s5.119 0.977 7.071 2.929L246 6.812v-29.166c0 -5.522 4.477 -10 10 -10s10 4.478 10 10v29.167l19.271 -19.271 c3.905 -3.904 10.237 -3.904 14.143 0c3.905 3.905 3.905 10.237 0 14.143L266 35.098v35.52l36.932 -36.932 c3.905 -3.904 10.237 -3.904 14.143 0c3.905 3.905 3.905 10.237 0 14.143L266 98.902v30.513c0 1.029 -0.156 2.022 -0.445 2.956 l24.719 -18.12c1.752 -1.284 3.829 -1.935 5.913 -1.935c1.718 0 3.442 0.442 4.993 1.337c3.433 1.979 5.374 5.798 4.948 9.737 l-3.303 30.562c0.673 -0.734 1.466 -1.381 2.375 -1.905l26.426 -15.257l18.697 -69.771c1.197 -4.468 5.237 -7.414 9.653 -7.414 c0.856 0.001 1.728 0.111 2.595 0.344c5.334 1.43 8.5 6.913 7.071 12.248l-13.52 50.45l30.762 -17.761l12.23 -45.642 c1.197 -4.469 5.237 -7.415 9.653 -7.415c0.856 0.001 1.728 0.111 2.595 0.344c5.334 1.43 8.5 6.913 7.071 12.247l-7.054 26.324 l25.258 -14.583c1.575 -0.909 3.294 -1.342 4.991 -1.342c3.456 0 6.817 1.794 8.669 5.002c2.762 4.783 1.123 10.898 -3.66 13.66 l-25.26 14.584l26.325 7.054c5.334 1.43 8.5 6.913 7.071 12.247C453.342 132.702 447.857 135.87 442.524 134.438zM286.801 181.035 c-3.989 -1.755 -6.382 -5.894 -5.914 -10.227l2.919 -27.02l-21.919 16.068c-1.76 1.29 -3.836 1.935 -5.912 1.935 c-2.072 0 -4.144 -0.643 -5.901 -1.927l-21.94 -16.038l2.957 27.015c0.475 4.333 -1.913 8.474 -5.899 10.235l-24.86 10.982l24.875 10.948 c3.989 1.755 6.382 5.894 5.914 10.227l-2.919 27.019l21.919 -16.068c3.515 -2.577 8.295 -2.579 11.813 -0.008l21.939 16.038 l-2.956 -27.015c-0.475 -4.333 1.913 -8.474 5.899 -10.235l24.861 -10.981L286.801 181.035z"/><glyph unicode="&#xE009;" glyph-name="snowflakes12" horiz-adv-x="512" d="M392.15616 305.11104l-12.66176 -8.96c-14.80704 -10.47552 -25.9072 -17.99168 -34.46272 -23.32672c0 -0.0256 0 -0.04608 0 -0.06656 c6.35392 -1.51552 11.8272 -4.20352 16.3072 -7.71584c4.3008 2.82624 9.04704 6.03136 14.40256 9.73312c-0.22016 -7.40352 -0.38912 -14.49472 -0.41984 -20.57216 c-1.08032 -1.13664 -2.14016 -2.21184 -3.21024 -3.31776c2.44736 -6.07744 3.08224 -12.9536 1.65376 -20.13184c4.82816 4.72576 9.70752 9.68192 14.70464 14.99648l2.21696 2.21696 l-0.01024 3.19488c-0.03072 10.3168 0.44544 24.6528 0.93184 38.4512L392.15616 305.11104zM481.9712 323.74784c1.81248 -0.65536 3.72224 -0.98816 5.66272 -0.98816c8.20736 0 16.05632 6.05184 18.26304 14.08 c2.69312 9.79968 -2.65216 19.54816 -12.6976 23.17312c-0.35328 0.128 -0.71168 0.256 -1.06496 0.384c2.51904 4.56192 3.00032 9.984 1.152 15.29344 c-2.75968 7.92576 -9.78944 13.26592 -17.53088 13.33248c0.60928 9.86624 -4.7104 17.92512 -13.6704 20.38784c-8.96 2.4576 -21.93408 -2.61632 -23.56736 -14.23872 c-1.49504 -10.66496 -3.47136 -21.57056 -6.03648 -33.25952c-5.01248 -3.43552 -10.8544 -7.59296 -16.7936 -11.8784c0.11264 12.02688 0.01024 21.56544 -0.32768 29.20448 c5.69344 5.29408 11.7248 10.79296 18.0224 16.08192c8.24832 6.93248 10.08128 17.58208 4.44416 25.89184c-3.46624 5.12512 -9.82528 8.44288 -16.19968 8.44288 c-4.08576 0 -7.82336 -1.32608 -10.80832 -3.83488c-0.31744 -0.26624 -0.62976 -0.53248 -0.94208 -0.7936c-3.85536 4.98176 -10.03008 7.59296 -15.89248 7.59296 c-5.18656 0 -10.08128 -1.97632 -13.42464 -5.4272c-0.61952 -0.64 -1.18272 -1.32608 -1.69472 -2.04288c-3.03104 2.21184 -6.47168 3.36384 -10.08128 3.36384 c-7.36256 0 -14.35136 -4.992 -17.39264 -12.416c-3.03104 -7.38304 -1.37728 -15.4624 4.32128 -21.07904c6.9632 -6.86592 14.37184 -14.11584 22.03136 -21.16608 c0.27648 -6.15424 0.36352 -13.96736 0.26624 -23.61344c-10.95168 7.60832 -19.63008 13.3632 -26.62912 17.664c-1.15712 7.47008 -2.37056 15.77984 -3.21536 23.93088 c-1.11104 10.71616 -8.90368 18.2016 -18.95424 18.2016c-5.30944 0 -10.71104 -2.47296 -14.44352 -6.61504c-3.39456 -3.76832 -4.99712 -8.448 -4.5056 -13.1584 c0.04608 -0.41472 0.08704 -0.82944 0.128 -1.24416c-8.11008 -0.4864 -15.5136 -6.44608 -17.85856 -14.53056c-1.12128 -3.86048 -0.9472 -7.67488 0.36864 -11.0848 c-7.5776 -2.7904 -12.12416 -9.9584 -11.29472 -18.34496c0.8704 -8.7808 7.9104 -18.11456 19.2512 -18.11456c1.32608 0 2.67264 0.13312 4.0192 0.40448 c9.55392 1.90976 19.67616 3.968 29.8752 6.37952c8.96512 -5.49888 20.36736 -13.39392 30.2848 -20.43904c-8.13568 -5.78048 -17.19296 -12.0576 -25.16992 -17.19296 c2.34496 -4.82816 3.8912 -9.93792 4.6336 -15.27296c9.14944 5.69856 21.21216 13.98272 38.21568 26.23488l8.64256 6.23104l-8.64256 6.23104 c-19.98848 14.40256 -33.18784 23.35744 -42.78784 29.02016l-2.68288 1.5872l-3.03616 -0.73728c-10.96192 -2.6624 -21.98528 -4.91008 -32.33792 -6.98368 c-3.04128 -0.60928 -4.77696 2.15552 -4.97664 4.16256c-0.19968 2.00192 0.73728 2.35008 1.97632 2.59584c3.57888 0.7168 7.16288 1.44384 10.74688 2.18112l18.76992 3.87072 l-19.8656 12.40576c-1.40288 0.89088 -1.51552 1.59744 -1.2288 2.58048c0.64512 2.23232 3.49696 4.53632 6.24128 2.80064l15.6416 -9.79968l-2.12992 16.1792 c-0.54272 4.14208 -1.07008 8.28416 -1.49504 12.45184c-0.0512 0.49152 0.47616 1.11616 0.63488 1.29536c0.90624 0.9984 2.24256 1.54112 3.03616 1.54112 c2.90304 0 3.53792 -3.09248 3.67616 -4.4288c1.024 -9.8304 2.5344 -19.7376 3.87584 -28.25728l0.55808 -3.56352l3.0976 -1.8432c9.3184 -5.53984 22.21056 -14.1824 40.56576 -27.20256 l11.776 -8.35584l0.34816 14.43328c0.4608 19.24608 0.39936 32.72704 -0.19968 42.4192l-0.18944 3.11296l-2.30912 2.0992c-8.27392 7.51616 -16.34816 15.42144 -23.9104 22.87104 c-0.52224 0.512 -1.89952 1.8688 -0.896 4.31616c0.71168 1.72544 2.22208 2.88256 3.18464 2.88256c0.5632 0 1.19296 -0.50176 1.62304 -0.92672 c2.60608 -2.56512 5.21728 -5.12512 7.82848 -7.67488l13.70624 -13.3632l-0.83968 23.38816c-0.0256 0.91648 0.13312 1.5616 0.48128 1.92 c0.45568 0.46592 1.37728 0.75776 2.40128 0.75776c0.7168 0 4.2752 -0.18432 4.38784 -3.8144l0.54784 -18.52416l12.30336 10.91584c3.1232 2.77504 6.26688 5.5296 9.472 8.2176 c0.2304 0.19456 0.63488 0.23552 0.93184 0.23552c1.39776 0 2.92352 -0.8704 3.4816 -1.69472c1.62816 -2.40128 -0.57856 -4.6592 -1.60256 -5.51936 c-7.54688 -6.33856 -14.62272 -12.88192 -21.23264 -19.04128l-2.64192 -2.46272l0.21504 -3.60448c0.61952 -10.54208 0.70144 -25.48736 0.24576 -47.02208l-0.32256 -15.50848l12.52864 9.14432 c10.63936 7.76192 22.71232 16.52736 31.32416 22.3232l3.39456 2.28352v3.27168c2.87744 12.89216 5.07904 24.86272 6.71744 36.57728c0.06656 0.47616 1.67936 1.64352 3.584 1.64352 c0.3584 0 0.5888 -0.04608 0.69632 -0.0768c1.97632 -0.54272 2.75968 -2.37568 2.3296 -5.4528c-0.52736 -3.75808 -1.13152 -7.51104 -1.7664 -11.25376l-3.29216 -19.46112 l18.58048 14.43328c0.45568 0.36352 1.13152 0.7936 1.74592 0.7936c1.024 0 2.53952 -1.21344 3.16928 -3.02592c0.84992 -2.44224 -0.65024 -3.63008 -1.20832 -4.07552 c-1.06496 -0.8448 -2.14016 -1.66912 -3.22048 -2.48832l-13.32224 -10.24l14.49984 -4.24448c4.8128 -1.408 8.77056 -2.68288 12.45184 -4.01408 c0.67072 -0.24064 3.94752 -1.59744 3.10784 -4.6592c-0.37888 -1.3824 -2.18624 -2.72384 -3.90656 -2.71872c-9.6768 3.49696 -20.08576 6.44096 -31.8208 9.01632l-3.22048 0.70656 l-2.72384 -1.8432c-10.26048 -6.93248 -24.67328 -17.36192 -37.39648 -26.55744l-8.60672 -6.2208l8.60672 -6.2208c15.34976 -11.10016 27.84768 -20.10624 37.39648 -26.56256l2.72384 -1.8432 l3.22048 0.70656c11.75552 2.58048 22.16448 5.5296 32.27136 9.088c1.3312 0 3.07712 -1.408 3.456 -2.7904c0.83968 -3.06176 -2.44224 -4.41856 -3.10272 -4.6592 c-3.66592 -1.32096 -7.74144 -2.6368 -12.45696 -4.0192l-14.49984 -4.24448l13.32224 -10.24c1.08032 -0.82432 2.15552 -1.64864 3.21536 -2.48832 c0.5632 -0.44544 2.06336 -1.6384 1.21344 -4.08064c-0.62976 -1.80736 -2.14528 -3.0208 -3.16928 -3.0208c-0.6144 0 -1.29024 0.43008 -1.75616 0.79872l-18.57024 14.42816l3.29216 -19.46112 c0.63488 -3.74272 1.23904 -7.49056 1.7664 -11.25888c0.43008 -3.072 -0.35328 -4.90496 -2.33472 -5.44768c-0.1024 -0.03072 -0.32768 -0.0768 -0.6912 -0.0768 c-1.90464 0 -3.52256 1.16736 -3.584 1.6384c-1.6384 11.71456 -3.84 23.68512 -6.71744 36.57728v3.27168l-3.39456 2.28352c-8.68352 5.84704 -20.81792 14.65856 -32.512 23.18336 l-11.75552 8.576l-0.44544 -14.54592c-0.53248 -17.32608 -0.9728 -32.58368 -0.96768 -43.8272v-3.29728l2.39104 -2.26816c8.70912 -8.28416 16.98304 -15.25248 25.2928 -21.2992 c0.54272 -0.39936 0.70144 -1.26976 0.74752 -1.62304c0.128 -1.13664 -0.19968 -2.42688 -0.79872 -3.13344c-1.38752 -1.62816 -3.6096 -1.48992 -5.60128 -0.03584 c-3.16416 2.304 -6.44096 4.864 -10.30656 8.05888l-11.63264 9.62048l-1.03424 -16.896c-0.0768 -1.31072 -0.14848 -2.62144 -0.25088 -3.92192 c-0.22528 -3.0208 -2.6624 -3.47648 -4.096 -3.47648c-1.14176 0 -2.21696 0.36352 -2.7392 0.93184c-0.13824 0.1536 -0.57344 0.61952 -0.47104 2.05824l1.59744 23.53664 l-14.32576 -13.68576c-0.5888 -0.5632 -1.19296 -1.10592 -1.78688 -1.664c9.52832 -6.87616 16.03072 -16.13824 18.7648 -26.47552c6.48192 0.33792 13.06624 3.75808 16.32768 10.15296 c0.30208 -0.22016 0.60416 -0.44544 0.90624 -0.66048c3.6096 -2.63168 7.94112 -4.08064 12.1856 -4.08064c5.49376 0 10.51136 2.3296 14.1312 6.5536 c3.37408 3.95264 5.01248 9.5232 4.3776 14.90944c-0.08704 0.7168 -0.20992 1.41312 -0.36352 2.0992c4.68992 -6.64576 13.93152 -9.20064 20.82304 -7.30112 c8.97024 2.46784 14.2848 10.53184 13.67552 20.38784c7.73632 0.06656 14.7712 5.40672 17.53088 13.33248c1.84832 5.30944 1.37728 10.73152 -1.152 15.29344 c0.35328 0.128 0.71168 0.256 1.06496 0.384c10.05056 3.63008 15.39584 13.37344 12.6976 23.17824c-2.21184 8.02304 -10.0608 14.08 -18.26304 14.08 c-1.9456 0 -3.85024 -0.3328 -5.66784 -0.98816c-8.13568 -2.93888 -16.89088 -5.4784 -26.6752 -7.7312c-7.05024 4.8384 -15.62624 10.96704 -25.6512 18.19648 c9.02656 6.51264 18.23232 13.09696 25.6512 18.19136C465.05984 329.23648 473.81504 326.69696 481.9712 323.74784zM434.6624 234.61376 c-7.00416 5.09952 -14.01344 10.92608 -21.35552 17.76128c0.0512 7.19872 0.24576 15.86176 0.52224 25.51296c6.72768 -4.86912 13.19424 -9.48224 18.6624 -13.22496 c2.56512 -11.68384 4.54144 -22.59456 6.03648 -33.25952c0.04608 -0.32768 0.1024 -0.64512 0.16384 -0.96256C437.60128 232.04864 436.2496 233.46176 434.6624 234.61376zM357.12512 125.45024c-3.26656 0 -6.46656 -0.55296 -9.51296 -1.65376c-13.79328 -4.98176 -28.60544 -9.27232 -45.11744 -13.07648 c-12.53888 8.60672 -27.8528 19.56864 -43.53536 30.87872c15.67744 11.31008 30.99648 22.27712 43.53536 30.87872c16.512 -3.80416 31.31904 -8.09472 45.11744 -13.07648 c3.05152 -1.1008 6.25152 -1.65376 9.51296 -1.65376c9.72288 0 19.08736 5.12512 25.09312 12.8512c4.11136 9.92256 3.57888 19.65568 -0.4608 28.06784 c-3.06176 6.36928 -8.12032 11.96032 -14.69952 16.29184c-1.36192 0.89088 -2.75456 1.74592 -4.23424 2.52416c-0.65536 0.34816 -1.152 0.768 -1.536 1.23392 c-1.07008 1.28512 -1.18272 2.92352 -0.67584 4.41344c0.09728 0.45056 0.13824 0.896 0.37376 1.3568c3.32288 6.61504 4.15232 12.80512 3.07712 18.26816 c-1.34656 6.81984 -5.68832 12.47744 -12.1344 16.27136c-3.83488 2.25792 -8.3968 3.86048 -13.48096 4.6592c-0.6912 0.10752 -1.26464 0.31744 -1.74592 0.59904 c-1.43872 0.8448 -1.98656 2.36544 -1.88416 3.93728c-0.04096 0.34816 -0.15872 0.64512 -0.128 1.03936c0.2048 2.65728 0.1792 5.25824 -0.03072 7.81312 c-0.45568 5.50912 -1.8944 10.752 -4.41344 15.63648c-0.22528 0.44032 -0.47616 0.8704 -0.7168 1.30048c-0.13312 0.03072 -0.26624 0.05632 -0.39936 0.08704 c-3.86048 4.47488 -8.96 7.8592 -15.1808 9.5744c-2.53952 0.69632 -5.22752 1.0496 -8.00256 1.0496c-13.60384 0 -29.29152 -8.74496 -31.55456 -24.95488 c-2.51392 -17.9456 -5.85728 -36.37248 -10.19392 -56.19712c-8.54528 -5.85216 -18.52416 -12.9536 -28.66688 -20.27008c0.2048 20.50048 0.0256 36.71552 -0.54784 49.67936 c9.344 8.68352 19.82464 18.2528 30.45888 27.1872c13.86496 11.63776 16.94208 29.52704 7.48544 43.49952c-5.83168 8.60672 -16.512 14.16704 -27.20768 14.16704 c-6.85568 0 -13.12256 -2.2272 -18.13504 -6.43072c-0.57344 -0.4864 -1.152 -0.96768 -1.72544 -1.45408c-6.46144 8.45824 -16.896 12.89728 -26.79296 12.89728 c-8.70912 0 -16.92672 -3.31776 -22.53312 -9.10336c-1.09056 -1.12128 -2.06848 -2.31424 -2.93888 -3.56864c-5.12512 3.77344 -10.94144 5.74976 -17.05472 5.74976 c-12.35456 0 -24.09472 -8.38144 -29.2096 -20.85888c-5.08928 -12.40576 -2.304 -25.96864 7.26016 -35.39968c11.7248 -11.56096 24.20224 -23.7824 37.2224 -35.7632 c0.47616 -10.46016 0.62464 -23.77216 0.45056 -40.23296c-18.6368 12.94848 -33.3824 22.7328 -45.25056 30.01856c-1.95584 12.63616 -4.00896 26.69568 -5.43744 40.4736 c-1.8688 18.00192 -14.95552 30.57152 -31.82592 30.57152c-8.91392 0 -17.98656 -4.15232 -24.25344 -11.10528c-5.70368 -6.32832 -8.3968 -14.17728 -7.57248 -22.10304 c0.0768 -0.74752 0.1536 -1.50016 0.23552 -2.24768c-13.68576 -0.74752 -26.20416 -10.78272 -30.16192 -24.41728c-1.8944 -6.528 -1.5872 -12.98944 0.67072 -18.74944 c-12.98432 -4.61312 -20.52608 -16.48128 -19.10272 -30.86336c1.46432 -14.7456 13.2864 -30.42304 32.31744 -30.42304c2.23232 0 4.50048 0.22528 6.76352 0.68096 c16.21504 3.24608 33.3824 6.73792 50.47808 10.7776c15.20128 -9.3184 34.55488 -22.72768 51.3536 -34.66752c-16.80384 -11.94496 -36.15744 -25.34912 -51.3536 -34.66752 c-17.11104 4.03968 -34.26816 7.53152 -50.4832 10.77248c-2.25792 0.45568 -4.5312 0.68096 -6.7584 0.68096c-19.03616 0 -30.85824 -15.67744 -32.31744 -30.42304 c-1.42336 -14.37696 6.1184 -26.24512 19.10272 -30.85824c-2.2528 -5.76 -2.56 -12.22144 -0.67072 -18.74944c3.95264 -13.62944 16.47616 -23.66976 30.16192 -24.41728 c-0.08192 -0.74752 -0.15872 -1.50016 -0.23552 -2.24768c-0.82432 -7.93088 1.86368 -15.77984 7.57248 -22.10304c6.27712 -6.95296 15.33952 -11.1104 24.25344 -11.1104 c16.8704 0 29.95712 12.5696 31.82592 30.57664c1.43872 13.83424 3.4304 27.48416 5.43744 40.46336c11.04896 6.784 24.58112 15.72352 41.45152 27.392 c-0.37888 -12.66688 -0.67072 -24.7808 -0.72704 -35.0976c-13.96736 -14.68928 -27.35616 -27.79136 -40.82176 -39.94112c-5.84192 -5.26848 -8.99584 -12.84096 -8.8832 -21.31456 c0.12288 -9.49248 4.44416 -19.01568 11.264 -24.84736c11.66336 -9.97376 28.43648 -9.74848 41.36448 0.29696c0.78848 -1.17248 1.67424 -2.28352 2.64704 -3.33312 c5.7856 -6.23616 14.35648 -9.80992 23.51616 -9.80992c11.48416 0 23.51616 5.90336 29.2608 17.32608c0.5632 -0.41472 1.12128 -0.82432 1.67936 -1.23392 c6.07232 -4.41344 13.3376 -6.85056 20.46976 -6.85056c9.22624 0 17.64864 3.90656 23.72096 10.99776c5.66784 6.63552 8.4224 16 7.36256 25.04704 c-0.1792 1.50016 -0.45568 2.95936 -0.8192 4.37248c7.68512 -11.68896 23.6288 -16.25088 35.47136 -12.98432c15.09888 4.15232 24.03328 17.7664 22.94272 34.41664 c13.06112 0.03584 24.95488 9.02656 29.60896 22.39488c3.1232 8.98048 2.28864 18.1504 -2.02752 25.84576c0.6656 0.23552 1.32096 0.47104 1.97632 0.70656 c16.88576 6.08768 25.86112 22.46144 21.33504 38.92736C384.0768 115.29216 370.8928 125.45024 357.12512 125.45024zM267.62752 8.68864 c-11.84768 8.6272 -23.7056 18.47808 -36.11648 30.0288c0.08192 12.23168 0.41984 26.9824 0.88576 43.43808c11.45344 -8.28416 22.47168 -16.14848 31.80032 -22.53312 c4.34176 -19.81952 7.68 -38.25152 10.19392 -56.19712c0.11264 -0.8448 0.27136 -1.664 0.4608 -2.46784C272.95744 3.95776 270.52544 6.57408 267.62752 8.68864zM357.76 86.96832c-6.1952 -2.23744 -13.07136 -4.4544 -21.02272 -6.77888l-24.21248 -7.08608l21.93408 -16.82432c1.93536 -1.47968 3.87072 -2.95424 5.77024 -4.4544 c0.97792 -0.77312 3.57376 -2.83648 2.10432 -7.0656c-0.98304 -2.83136 -3.51232 -5.21728 -5.50912 -5.21728c-1.08544 0 -2.2528 0.74752 -3.0464 1.37216 c-1.01376 0.80896 -2.048 1.59744 -3.08224 2.38592l-27.95008 21.75488l5.49376 -32.47104c1.07008 -6.3232 2.07872 -12.65152 2.97472 -18.9952 c0.73728 -5.27872 -0.62976 -8.43264 -4.04992 -9.37472c-0.18432 -0.05632 -0.5888 -0.13824 -1.21344 -0.13824c-3.29216 0 -6.08768 2.06336 -6.21056 2.90304 c-2.79552 19.98848 -6.5792 40.5248 -11.56608 62.75584l-1.5616 5.63712l-3.88608 2.6112c-14.72 9.9072 -35.1744 24.76032 -54.8608 39.13216l-19.58912 14.30016l-0.74752 -24.2432 c-0.93184 -30.3104 -1.64352 -54.99904 -1.63328 -73.96352l0.00512 -5.48864l3.97312 -3.77856c14.68928 -13.97248 28.65152 -25.72288 42.68032 -35.9424 c0.96768 -0.70656 1.24416 -2.22208 1.32096 -2.8416c0.2304 -1.96096 -0.34304 -4.18816 -1.38752 -5.41696c-2.42176 -2.81088 -6.25664 -2.58048 -9.67168 -0.09216 c-5.35552 3.89632 -10.88512 8.2176 -17.39264 13.60896l-19.40992 16.0512l-1.69472 -28.00128c-0.13312 -2.2784 -0.26624 -4.56704 -0.4352 -6.84032 c-0.40448 -5.4272 -5.07904 -6.01088 -7.07072 -6.01088c-1.9712 0 -3.82976 0.64 -4.74624 1.61792c-0.256 0.27648 -1.01888 1.1008 -0.82944 3.59936 c0.1024 1.31072 0.17408 2.62144 0.25088 3.93216l2.36032 35.3024l-23.81824 -22.72768c-4.6336 -4.4288 -9.30816 -8.81664 -14.07488 -13.11744 c-2.28352 -2.06336 -4.8128 -3.29728 -6.7584 -3.29728c-0.75776 0 -1.8176 0.15872 -3.2768 1.39776c-1.08032 0.92672 -2.26304 3.37408 -2.29376 5.72416 c-0.01536 1.01888 0.2048 1.76128 0.4352 1.96608c15.07328 13.60896 30.0288 28.32896 45.5168 44.79488l3.7632 3.7632l-0.01536 5.3248 c-0.0512 17.3056 0.74752 41.5488 1.56672 64.90112l0.91136 25.8304l-21.0944 -14.93504c-29.71648 -21.03296 -50.67264 -35.06176 -65.96608 -44.14464l-5.1712 -3.07712l-0.93696 -5.94432 c-2.25792 -14.3872 -4.8128 -31.11936 -6.528 -47.67744c-0.24064 -2.28864 -1.33632 -7.61344 -6.36416 -7.61344c-1.3824 0 -3.69152 0.93184 -5.23776 2.65216 c-0.29184 0.31744 -1.21344 1.42336 -1.1264 2.32448c0.73216 7.0144 1.60256 14.00832 2.52928 21.00224l3.56864 27.008l-26.09664 -16.36864 c-1.26976 -0.80384 -2.45248 -1.19296 -3.59936 -1.19296c-3.27168 0 -6.35904 3.0976 -7.19872 5.9904c-0.50688 1.74592 -0.31744 2.98496 2.14016 4.54144l33.2288 20.72576 l-31.32928 6.4512c-6.0416 1.24416 -12.0832 2.47296 -18.13504 3.6864c-2.09408 0.41984 -3.79904 1.05472 -3.456 4.56192c0.34304 3.44576 3.26656 8.21248 8.58112 7.16288 c17.58208 -3.52256 36.2752 -7.33184 54.59968 -11.78624l5.05344 -1.22368l4.48 2.64704c16.19968 9.56928 38.46656 24.66816 72.19712 48.96768l14.41792 10.38336l-14.41792 10.38336 c-33.72544 24.2944 -55.99232 39.3984 -72.19712 48.9728l-4.48 2.64704l-5.05344 -1.2288c-18.31936 -4.4544 -37.01248 -8.26368 -54.59456 -11.78112 c-5.3248 -1.0752 -8.23296 3.71712 -8.58624 7.16288c-0.34304 3.5072 1.36192 4.13696 3.456 4.5568c6.05184 1.20832 12.09344 2.44224 18.13504 3.6864l31.29344 6.44608 l-33.18784 20.73088c-2.4576 1.55648 -2.65728 2.79552 -2.14528 4.54144c0.83456 2.8928 3.93216 5.9904 7.19872 5.9904c1.152 0 2.3296 -0.39424 3.59424 -1.19296 l26.10176 -16.37376l-3.56864 27.008c-0.92672 6.9888 -1.80224 13.98784 -2.52928 21.00224c-0.09216 0.896 0.83456 2.00192 1.12128 2.31936 c1.55648 1.72032 3.86048 2.65216 5.24288 2.65216c5.02784 0 6.12352 -5.3248 6.36416 -7.61344c1.72032 -16.5632 4.27008 -33.29536 6.528 -47.67744l0.93696 -5.94432l5.1712 -3.072 c15.7184 -9.344 37.4784 -23.936 68.47488 -45.9264l19.62496 -13.9264l0.57344 24.05888c0.77824 32.49664 0.67584 55.23968 -0.32768 71.57248l-0.31744 5.19168l-3.85024 3.49696 c-14.07488 12.78464 -27.65312 26.08128 -40.36096 38.60992c-0.80896 0.79872 -3.2768 3.23072 -1.54624 7.45984c1.21856 2.9696 3.84 4.9664 5.52448 4.9664 c1.00864 0 2.10944 -0.87552 2.85184 -1.60256c4.39296 -4.33664 8.8064 -8.6528 13.21984 -12.95872l22.85056 -22.26176l-1.2544 35.08736 c-0.05632 1.32096 -0.10752 2.6368 -0.14848 3.97824c-0.0512 1.59232 0.24064 2.72384 0.85504 3.35872c0.7936 0.8192 2.39104 1.32608 4.15744 1.32608 c1.2288 0 7.3728 -0.31744 7.56736 -6.61504l1.07008 -30.7968l20.36736 18.0992c5.26848 4.6848 10.5728 9.32352 15.98464 13.86496c0.42496 0.3584 1.14688 0.4352 1.66912 0.4352 c2.41664 0 5.05344 -1.5104 6.01088 -2.9184c2.82112 -4.16256 -0.97792 -8.05376 -2.74432 -9.53856c-12.79488 -10.74688 -25.20064 -22.2208 -35.82464 -32.13312l-4.39296 -4.10624 l0.34816 -6.00576c1.0496 -17.7664 1.1776 -42.98752 0.41472 -79.37024l-0.54272 -25.85088l20.88448 15.24224c17.96096 13.1072 38.33856 27.904 52.86912 37.67808l3.75808 2.52928 l1.3312 4.33152l0.35328 1.40288c2.58048 11.51488 4.82304 22.55872 6.79424 33.32096c1.82784 10.0096 3.42016 19.77856 4.76672 29.4144 c0.03072 0.22528 0.2816 0.5376 0.65536 0.87552c1.01888 0.9216 3.14368 2.02752 5.55008 2.02752c0.62976 0 1.02912 -0.08192 1.21344 -0.13312 c2.0224 -0.55808 3.23072 -1.9712 3.80928 -4.0448c0.40448 -1.44384 0.54272 -3.15904 0.24576 -5.31968c-0.47104 -3.328 -1.03424 -6.64064 -1.5616 -9.9584 c-0.29696 -1.8688 -0.5632 -3.74272 -0.87552 -5.61152c-0.18944 -1.14688 -0.34304 -2.29888 -0.5376 -3.44064l-2.0736 -12.24192l-3.42528 -20.22912l9.97888 7.76704l12.95872 10.08128 l4.992 3.88096c0.96256 0.73728 1.92512 1.47456 2.87232 2.22208c0.08192 0.06144 0.15872 0.11776 0.23552 0.1792c0.78848 0.62976 1.96096 1.37216 3.0464 1.37216 c2.00192 0 4.52608 -2.38592 5.50912 -5.21728c1.46944 -4.22912 -1.1264 -6.28736 -2.0992 -7.05536c-1.87392 -1.4848 -3.7632 -2.92864 -5.65248 -4.37248l-11.90912 -9.14432 l-10.13248 -7.7824l24.21248 -7.07072c8.07424 -2.36032 14.75584 -4.51584 21.0176 -6.77888c1.152 -0.41472 6.79936 -2.74944 5.34528 -8.05376 c-0.74752 -2.70336 -4.58752 -5.48864 -6.80448 -4.69504c-16.32768 5.89312 -33.88928 10.86976 -53.67808 15.20128l-5.36064 1.17248l-4.55168 -3.072 c-17.21344 -11.63776 -40.54528 -28.50304 -63.104 -44.81536l-14.34624 -10.37312l14.34624 -10.37312c22.55872 -16.31232 45.88544 -33.17248 63.104 -44.81536l4.55168 -3.07712l5.36064 1.17248 c19.7888 4.33664 37.3504 9.30816 53.67808 15.2064c2.24256 0.80896 6.06208 -1.98656 6.79936 -4.6848C364.55936 89.71776 358.912 87.38304 357.76 86.96832z"/><glyph unicode="&#xE00A;" glyph-name="toolbox3" horiz-adv-x="512" d="M111.7952 296.48896c0.80384 0.39424 1.5872 0.8192 2.34496 1.24416c0.384 -0.50688 0.78848 -0.99328 1.25952 -1.4592l44.34432 -44.35456 c2.77504 3.25632 6.8608 5.30432 11.2896 5.30432c1.4336 0 2.86208 -0.2048 4.23424 -0.6144l5.5296 -1.64352l3.44064 11.57632l-49.28512 49.29024 c-0.78336 0.77312 -1.62304 1.42336 -2.52928 1.97632l0.11264 0.512c0.11776 0.46592 0.27136 0.8192 0.41472 1.22368c0.11264 0.30208 0.2304 0.61952 0.34304 0.95232 c0.14336 0.32256 0.28672 0.6656 0.43008 1.024c0.24576 0.59392 0.50688 1.23904 0.83968 1.8944l0.92672 1.87904l1.05472 1.86368 c0.44544 0.85504 0.9472 1.59744 1.52064 2.44736c0.3072 0.45056 0.6144 0.91648 0.92672 1.39264c0.27648 0.36864 0.56832 0.74752 0.85504 1.13664 c0.7168 0.9472 1.38752 1.84832 2.11456 2.62656l0.50688 0.55808c0.96256 1.0496 1.92512 2.13504 3.0464 3.06176c0.35328 0.31744 0.62464 0.5632 0.90624 0.81408 c0.37888 0.35328 0.76288 0.71168 1.17248 1.03424l2.16064 1.57184c0.07168 0.04096 0.12288 0.08704 0.16896 0.13312c0.86528 0.6912 1.90464 1.27488 3.01056 1.8944 c0.44544 0.24064 0.87552 0.48128 1.31072 0.7424c0.92672 0.59392 1.88416 0.97792 2.90304 1.38752c0.512 0.21504 1.01376 0.41984 1.52576 0.64 c0.29696 0.11776 0.59904 0.25088 0.896 0.384c0.32256 0.13312 0.64 0.29184 0.96256 0.37376l2.37568 0.6656c0.47104 0.11776 1.01888 0.27648 1.57184 0.4352 c0.77312 0.22528 1.52064 0.44032 2.0224 0.50688l6.35904 0.93184c0.92672 0.13312 1.74592 0.5632 2.37568 1.18784c0.6912 0.69632 1.152 1.6384 1.21856 2.67776 c0.13312 1.97632 -1.12128 3.78368 -3.0208 4.34176L167.168 359.8848c-1.09056 0.32768 -2.24768 0.49664 -3.36384 0.66048c-0.49664 0.0768 -1.00352 0.14848 -1.54112 0.24064 l-2.74432 0.42496c-0.86016 0.13824 -1.66912 0.15872 -2.38592 0.17408c-0.2816 0.01024 -0.56832 0.01536 -0.86528 0.03072c-0.7168 0.01024 -1.23904 0.03584 -1.77664 0.06144 c-1.59744 0.06656 -3.4048 0.13824 -5.3248 -0.11264l-1.21856 -0.09728c-1.83808 -0.1536 -3.9424 -0.32256 -6.05696 -0.82944l-3.38944 -0.68608 c-1.04448 -0.256 -1.91488 -0.52736 -2.7904 -0.79872l-1.07008 -0.32768c-2.45248 -0.68096 -4.77184 -1.65376 -7.0144 -2.60096l-0.3072 -0.128 c-1.92512 -0.79872 -3.67104 -1.73056 -5.36064 -2.63168l-1.40288 -0.74752c-0.09728 -0.04608 -0.17408 -0.1024 -0.27136 -0.1536c-0.54272 -0.33792 -1.09568 -0.67072 -1.63328 -0.9984 c-1.46432 -0.88576 -2.98496 -1.80224 -4.39296 -2.84672l-2.34496 -1.67424c-0.0512 -0.04096 -0.2816 -0.20992 -0.33792 -0.256l-2.31936 -1.85344 c-0.62464 -0.48128 -1.2032 -0.9728 -1.75616 -1.45408c-4.17792 -0.69632 -8.192 -2.6368 -11.41248 -5.8624l-4.9664 -4.96128c-2.28864 -2.28864 -4.43392 -5.49888 -6.20032 -9.09824 c-7.78752 1.49504 -18.3552 -10.00448 -34.11456 -25.75872l35.24096 -35.2256C98.12992 274.46272 113.30048 288.70144 111.7952 296.48896zM388.14208 298.6752l22.20544 -4.29568l22.59968 28.53376c4.1216 5.17632 10.98752 7.54688 17.39264 6.03136v12.288h-33.37216v-26.7008h-35.94752L388.14208 298.6752zM186.65984 291.46624L193.5104 314.53696L163.59424 314.53696ZM450.33984 171.03872V256.56832c-0.59904 -0.82432 -1.19808 -1.65376 -1.83808 -2.4576c-9.28768 -11.72992 -21.61152 -20.1728 -35.42528 -24.66816h3.89632v-58.39872H338.74432 h-11.19232l41.90208 57.12896c0.75776 0.9728 1.46432 1.97632 2.11456 3.00544c23.40352 -5.86752 49.16224 1.9456 65.09056 22.05184 c11.62752 14.67392 16.14848 33.62304 12.3904 51.9936c-0.41472 2.08384 -2.01728 3.73248 -4.07552 4.22912c-2.06848 0.4864 -4.23424 -0.26112 -5.56032 -1.92l-27.008 -34.0992 l-35.10784 6.79936l-14.66368 32.62976l27.01824 34.0992c1.32608 1.664 1.55136 3.94752 0.60416 5.84192c-0.95744 1.90464 -2.92352 3.07712 -5.0432 3.01568 c-18.74944 -0.55296 -36.16256 -9.28256 -47.79008 -23.95648c-15.91296 -20.096 -17.63328 -46.94016 -6.59456 -68.3776c-0.83456 -0.88064 -1.65376 -1.81248 -2.44736 -2.80576L274.16576 196.17792 l13.12256 -13.12768c3.39456 -3.39456 5.77536 -7.51616 7.05024 -12.01152h-5.85728c-1.06496 2.94912 -2.75968 5.71392 -5.12512 8.07936l-74.63936 74.6496l-1.94048 -6.50752 l5.05856 -1.50528c3.80416 -1.1264 6.94272 -3.67104 8.832 -7.15776c1.88928 -3.48672 2.30912 -7.50592 1.1776 -11.31008c-0.60928 -2.03776 -1.65376 -3.9168 -3.03616 -5.504 c0.38912 -3.48672 0.09216 -7.01952 -0.93696 -10.4192l-6.70208 -22.56896l17.75104 -17.74592H223.232h-12.42112h-12.4672l13.17888 44.37504 c1.13152 3.77856 1.03424 7.63392 -0.0256 11.14624c1.85856 0.9472 3.34848 2.62656 3.9936 4.7872c1.23392 4.18304 -1.14688 8.58624 -5.33504 9.82528l-11.71456 3.48672 l31.84128 107.18208l1.00352 -0.29696l8.24832 15.96928l3.23584 24.9088l-13.7472 4.08064l-10.7008 -22.69696l-1.72032 -17.90976l1.01888 -0.30208l-31.8464 -107.1872l-12.19072 3.61984 c-4.1728 1.24416 -8.58624 -1.14176 -9.82528 -5.3248c-0.59904 -2.0224 -0.35328 -4.09088 0.53248 -5.8368c-2.93376 -2.3808 -5.21728 -5.64736 -6.3744 -9.54368L140.032 171.03872 h-11.91936h-4.8128V229.43744h22.15936l3.96288 13.35296c0.9984 3.34336 1.67936 4.26496 3.67104 7.05536l-35.77856 36.65408c-4.89984 -6.74816 -9.74848 -13.7472 -17.29536 -21.23776 l-10.0864 -10.07616v-84.1472h-10.8544v-116.80256c0 -36.85888 29.89056 -66.74432 66.75456 -66.74432h248.62208c36.864 0 66.7392 29.88032 66.7392 66.74432V171.03872H450.33984zM188.35968 212.5312c1.31584 4.44416 5.98528 6.96832 10.42944 5.65248c4.4288 -1.31584 6.9632 -5.98528 5.64224 -10.42944L193.536 171.03872h-17.50016L188.35968 212.5312zM161.32608 220.55936c1.31584 4.43904 5.98528 6.96832 10.42944 5.65248c4.43904 -1.31584 6.96832 -5.98528 5.64736 -10.42432l-13.29152 -44.74368h-17.49504L161.32608 220.55936zM231.65952 314.53696l-12.91264 -43.46368l41.64096 -41.63584h22.3232l37.12512 44.16c-5.09952 13.184 -6.25152 27.38176 -3.72736 40.93952H231.65952z"/><glyph unicode="&#xE00B;" glyph-name="wrench44" horiz-adv-x="512" d="M473.93792 304.64512c-0.3328 3.90144 -2.90304 7.25504 -6.5792 8.59136c-3.68128 1.34656 -7.79776 0.43008 -10.56768 -2.33472L400.12288 254.23872l-62.81728 19.8912 L317.4144 336.9472l56.66304 56.66816c2.77504 2.76992 3.68128 6.89152 2.34496 10.56768c-1.34656 3.68128 -4.69504 6.2464 -8.6016 6.58432 c-34.41664 2.96448 -68.13696 -9.32352 -92.5184 -33.70496c-33.38752 -33.39264 -42.22976 -82.15552 -26.5728 -123.71968c-1.71008 -1.44384 -3.39968 -2.9696 -5.06368 -4.61824L54.51264 70.24128 c-0.06656 -0.06656 -0.13312 -0.13824 -0.2048 -0.2048c-22.2464 -22.24128 -22.2464 -58.43968 0 -80.68608c22.2464 -22.2464 58.17856 -21.97504 80.41984 0.26624 c0.09728 0.09216 0.18432 0.18432 0.27136 0.2816l176.93184 190.62784c1.60768 1.61792 3.10784 3.31264 4.51584 5.05344c41.57952 -15.68768 90.37312 -6.86592 123.79136 26.5472 C464.6144 236.51328 476.90752 270.2336 473.93792 304.64512zM106.22464 13.37856c-8.19712 -8.19712 -21.47328 -8.192 -29.6704 0c-8.192 8.192 -8.192 21.47328 0 29.66528 c8.19712 8.192 21.47328 8.192 29.6704 0C114.41664 34.85184 114.41664 21.57056 106.22464 13.37856z"/></font></defs></svg>
